<?xml version="1.0" encoding="utf-8"?>
<!DOCTYPE eagle SYSTEM "eagle.dtd">
<eagle version="9.1.3">
<drawing>
<settings>
<setting alwaysvectorfont="no"/>
<setting verticaltext="up"/>
</settings>
<grid distance="12.5" unitdist="mil" unit="mm" style="dots" multiple="1" display="yes" altdistance="5" altunitdist="mil" altunit="mm"/>
<layers>
<layer number="1" name="Top" color="4" fill="1" visible="yes" active="yes"/>
<layer number="16" name="Bottom" color="1" fill="1" visible="yes" active="yes"/>
<layer number="17" name="Pads" color="2" fill="1" visible="yes" active="yes"/>
<layer number="18" name="Vias" color="2" fill="1" visible="yes" active="yes"/>
<layer number="19" name="Unrouted" color="6" fill="1" visible="yes" active="yes"/>
<layer number="20" name="Dimension" color="24" fill="1" visible="yes" active="yes"/>
<layer number="21" name="tPlace" color="7" fill="1" visible="yes" active="yes"/>
<layer number="22" name="bPlace" color="7" fill="1" visible="no" active="yes"/>
<layer number="23" name="tOrigins" color="15" fill="1" visible="yes" active="yes"/>
<layer number="24" name="bOrigins" color="15" fill="1" visible="no" active="yes"/>
<layer number="25" name="tNames" color="7" fill="1" visible="yes" active="yes"/>
<layer number="26" name="bNames" color="7" fill="1" visible="no" active="yes"/>
<layer number="27" name="tValues" color="7" fill="1" visible="no" active="yes"/>
<layer number="28" name="bValues" color="7" fill="1" visible="no" active="yes"/>
<layer number="29" name="tStop" color="7" fill="3" visible="no" active="yes"/>
<layer number="30" name="bStop" color="7" fill="6" visible="no" active="yes"/>
<layer number="31" name="tCream" color="7" fill="4" visible="no" active="yes"/>
<layer number="32" name="bCream" color="7" fill="5" visible="no" active="yes"/>
<layer number="33" name="tFinish" color="6" fill="3" visible="no" active="yes"/>
<layer number="34" name="bFinish" color="6" fill="6" visible="no" active="yes"/>
<layer number="35" name="tGlue" color="7" fill="4" visible="no" active="yes"/>
<layer number="36" name="bGlue" color="7" fill="5" visible="no" active="yes"/>
<layer number="37" name="tTest" color="7" fill="1" visible="no" active="yes"/>
<layer number="38" name="bTest" color="7" fill="1" visible="no" active="yes"/>
<layer number="39" name="tKeepout" color="4" fill="11" visible="no" active="yes"/>
<layer number="40" name="bKeepout" color="1" fill="11" visible="no" active="yes"/>
<layer number="41" name="tRestrict" color="4" fill="10" visible="no" active="yes"/>
<layer number="42" name="bRestrict" color="1" fill="10" visible="no" active="yes"/>
<layer number="43" name="vRestrict" color="2" fill="10" visible="no" active="yes"/>
<layer number="44" name="Drills" color="7" fill="1" visible="no" active="yes"/>
<layer number="45" name="Holes" color="7" fill="1" visible="no" active="yes"/>
<layer number="46" name="Milling" color="3" fill="1" visible="no" active="yes"/>
<layer number="47" name="Measures" color="7" fill="1" visible="no" active="yes"/>
<layer number="48" name="Document" color="7" fill="1" visible="no" active="yes"/>
<layer number="49" name="Reference" color="7" fill="1" visible="no" active="yes"/>
<layer number="51" name="tDocu" color="7" fill="1" visible="no" active="yes"/>
<layer number="52" name="bDocu" color="7" fill="1" visible="no" active="yes"/>
<layer number="88" name="SimResults" color="9" fill="1" visible="no" active="no"/>
<layer number="89" name="SimProbes" color="9" fill="1" visible="no" active="no"/>
<layer number="90" name="Modules" color="5" fill="1" visible="no" active="no"/>
<layer number="91" name="Nets" color="2" fill="1" visible="no" active="no"/>
<layer number="92" name="Busses" color="1" fill="1" visible="no" active="no"/>
<layer number="93" name="Pins" color="2" fill="1" visible="no" active="no"/>
<layer number="94" name="Symbols" color="4" fill="1" visible="no" active="no"/>
<layer number="95" name="Names" color="7" fill="1" visible="no" active="no"/>
<layer number="96" name="Values" color="7" fill="1" visible="no" active="no"/>
<layer number="97" name="Info" color="7" fill="1" visible="no" active="no"/>
<layer number="98" name="Guide" color="6" fill="1" visible="no" active="no"/>
<layer number="99" name="SpiceOrder" color="5" fill="1" visible="no" active="no"/>
</layers>
<board>
<plain>
<wire x1="0" y1="13.97" x2="84.76" y2="13.97" width="0" layer="20"/>
<wire x1="84.76" y1="13.97" x2="84.76" y2="69.84" width="0" layer="20"/>
<wire x1="84.76" y1="69.84" x2="0" y2="69.84" width="0" layer="20"/>
<wire x1="0" y1="69.84" x2="0" y2="13.97" width="0" layer="20"/>
<hole x="4.1275" y="18.0975" drill="3"/>
<hole x="80.9625" y="18.0975" drill="3"/>
<hole x="80.9625" y="65.405" drill="3"/>
<hole x="4.1275" y="65.405" drill="3"/>
</plain>
<libraries>
<library name="rcl" urn="urn:adsk.eagle:library:334">
<description>&lt;b&gt;Resistors, Capacitors, Inductors&lt;/b&gt;&lt;p&gt;
Based on the previous libraries:
&lt;ul&gt;
&lt;li&gt;r.lbr
&lt;li&gt;cap.lbr 
&lt;li&gt;cap-fe.lbr
&lt;li&gt;captant.lbr
&lt;li&gt;polcap.lbr
&lt;li&gt;ipc-smd.lbr
&lt;/ul&gt;
All SMD packages are defined according to the IPC specifications and  CECC&lt;p&gt;
&lt;author&gt;Created by librarian@cadsoft.de&lt;/author&gt;&lt;p&gt;
&lt;p&gt;
for Electrolyt Capacitors see also :&lt;p&gt;
www.bccomponents.com &lt;p&gt;
www.panasonic.com&lt;p&gt;
www.kemet.com&lt;p&gt;
http://www.secc.co.jp/pdf/os_e/2004/e_os_all.pdf &lt;b&gt;(SANYO)&lt;/b&gt;
&lt;p&gt;
for trimmer refence see : &lt;u&gt;www.electrospec-inc.com/cross_references/trimpotcrossref.asp&lt;/u&gt;&lt;p&gt;

&lt;table border=0 cellspacing=0 cellpadding=0 width="100%" cellpaddding=0&gt;
&lt;tr valign="top"&gt;

&lt;! &lt;td width="10"&gt;&amp;nbsp;&lt;/td&gt;
&lt;td width="90%"&gt;

&lt;b&gt;&lt;font color="#0000FF" size="4"&gt;TRIM-POT CROSS REFERENCE&lt;/font&gt;&lt;/b&gt;
&lt;P&gt;
&lt;TABLE BORDER=0 CELLSPACING=1 CELLPADDING=2&gt;
  &lt;TR&gt;
    &lt;TD COLSPAN=8&gt;
      &lt;FONT SIZE=3 FACE=ARIAL&gt;&lt;B&gt;RECTANGULAR MULTI-TURN&lt;/B&gt;&lt;/FONT&gt;
    &lt;/TD&gt;
  &lt;/TR&gt;
  &lt;TR&gt;
    &lt;TD ALIGN=CENTER&gt;
      &lt;B&gt;
      &lt;FONT SIZE=3 FACE=ARIAL color="#FF0000"&gt;BOURNS&lt;/FONT&gt;
      &lt;/B&gt;
    &lt;/TD&gt;
    &lt;TD ALIGN=CENTER&gt;
      &lt;B&gt;
      &lt;FONT SIZE=3 FACE=ARIAL color="#FF0000"&gt;BI&amp;nbsp;TECH&lt;/FONT&gt;
      &lt;/B&gt;
    &lt;/TD&gt;
    &lt;TD ALIGN=CENTER&gt;
      &lt;B&gt;
      &lt;FONT SIZE=3 FACE=ARIAL color="#FF0000"&gt;DALE-VISHAY&lt;/FONT&gt;
      &lt;/B&gt;
    &lt;/TD&gt;
    &lt;TD ALIGN=CENTER&gt;
      &lt;B&gt;
      &lt;FONT SIZE=3 FACE=ARIAL color="#FF0000"&gt;PHILIPS/MEPCO&lt;/FONT&gt;
      &lt;/B&gt;
    &lt;/TD&gt;
    &lt;TD ALIGN=CENTER&gt;
      &lt;B&gt;
      &lt;FONT SIZE=3 FACE=ARIAL color="#FF0000"&gt;MURATA&lt;/FONT&gt;
      &lt;/B&gt;
    &lt;/TD&gt;
    &lt;TD ALIGN=CENTER&gt;
      &lt;B&gt;
      &lt;FONT SIZE=3 FACE=ARIAL color="#FF0000"&gt;PANASONIC&lt;/FONT&gt;
      &lt;/B&gt;
    &lt;/TD&gt;
    &lt;TD ALIGN=CENTER&gt;
      &lt;B&gt;
      &lt;FONT SIZE=3 FACE=ARIAL color="#FF0000"&gt;SPECTROL&lt;/FONT&gt;
      &lt;/B&gt;
    &lt;/TD&gt;
    &lt;TD ALIGN=CENTER&gt;
      &lt;B&gt;
      &lt;FONT SIZE=3 FACE=ARIAL color="#FF0000"&gt;MILSPEC&lt;/FONT&gt;
      &lt;/B&gt;
    &lt;/TD&gt;&lt;TD&gt;&amp;nbsp;&lt;/TD&gt;
  &lt;/TR&gt;
  &lt;TR&gt;
    &lt;TD BGCOLOR="#cccccc" ALIGN=CENTER&gt;&lt;FONT FACE=ARIAL SIZE=3 &gt;
      3005P&lt;BR&gt;
      3006P&lt;BR&gt;
      3006W&lt;BR&gt;
      3006Y&lt;BR&gt;
      3009P&lt;BR&gt;
      3009W&lt;BR&gt;
      3009Y&lt;BR&gt;
      3057J&lt;BR&gt;
      3057L&lt;BR&gt;
      3057P&lt;BR&gt;
      3057Y&lt;BR&gt;
      3059J&lt;BR&gt;
      3059L&lt;BR&gt;
      3059P&lt;BR&gt;
      3059Y&lt;BR&gt;&lt;/FONT&gt;
    &lt;/TD&gt;
    &lt;TD BGCOLOR="#cccccc" ALIGN=CENTER&gt;&lt;FONT FACE=ARIAL SIZE=3&gt;
      -&lt;BR&gt;
      89P&lt;BR&gt;
      89W&lt;BR&gt;
      89X&lt;BR&gt;
      89PH&lt;BR&gt;
      76P&lt;BR&gt;
      89XH&lt;BR&gt;
      78SLT&lt;BR&gt;
      78L&amp;nbsp;ALT&lt;BR&gt;
      56P&amp;nbsp;ALT&lt;BR&gt;
      78P&amp;nbsp;ALT&lt;BR&gt;
      T8S&lt;BR&gt;
      78L&lt;BR&gt;
      56P&lt;BR&gt;
      78P&lt;BR&gt;&lt;/FONT&gt;
    &lt;/TD&gt;
    &lt;TD BGCOLOR="#cccccc" ALIGN=CENTER&gt;&lt;FONT FACE=ARIAL SIZE=3&gt;
      -&lt;BR&gt;
      T18/784&lt;BR&gt;
      783&lt;BR&gt;
      781&lt;BR&gt;
      -&lt;BR&gt;
      -&lt;BR&gt;
      -&lt;BR&gt;
      2199&lt;BR&gt;
      1697/1897&lt;BR&gt;
      1680/1880&lt;BR&gt;
      2187&lt;BR&gt;
      -&lt;BR&gt;
      -&lt;BR&gt;
      -&lt;BR&gt;
      -&lt;BR&gt;&lt;/FONT&gt;
    &lt;/TD&gt;
    &lt;TD BGCOLOR="#cccccc" ALIGN=CENTER&gt;&lt;FONT FACE=ARIAL SIZE=3&gt;
      -&lt;BR&gt;
      8035EKP/CT20/RJ-20P&lt;BR&gt;
      -&lt;BR&gt;
      RJ-20X&lt;BR&gt;
      -&lt;BR&gt;
      -&lt;BR&gt;
      -&lt;BR&gt;
      1211L&lt;BR&gt;
      8012EKQ&amp;nbsp;ALT&lt;BR&gt;
      8012EKR&amp;nbsp;ALT&lt;BR&gt;
      1211P&lt;BR&gt;
      8012EKJ&lt;BR&gt;
      8012EKL&lt;BR&gt;
      8012EKQ&lt;BR&gt;
      8012EKR&lt;BR&gt;&lt;/FONT&gt;
    &lt;/TD&gt;
    &lt;TD BGCOLOR="#cccccc" ALIGN=CENTER&gt;&lt;FONT FACE=ARIAL SIZE=3&gt;
      -&lt;BR&gt;
      2101P&lt;BR&gt;
      2101W&lt;BR&gt;
      2101Y&lt;BR&gt;
      -&lt;BR&gt;
      -&lt;BR&gt;
      -&lt;BR&gt;
      -&lt;BR&gt;
      -&lt;BR&gt;
      -&lt;BR&gt;
      -&lt;BR&gt;
      -&lt;BR&gt;
      2102L&lt;BR&gt;
      2102S&lt;BR&gt;
      2102Y&lt;BR&gt;&lt;/FONT&gt;
    &lt;/TD&gt;
    &lt;TD BGCOLOR="#cccccc" ALIGN=CENTER&gt;&lt;FONT FACE=ARIAL SIZE=3&gt;
      -&lt;BR&gt;
      EVMCOG&lt;BR&gt;
      -&lt;BR&gt;
      -&lt;BR&gt;
      -&lt;BR&gt;
      -&lt;BR&gt;
      -&lt;BR&gt;
      -&lt;BR&gt;
      -&lt;BR&gt;
      -&lt;BR&gt;
      -&lt;BR&gt;
      -&lt;BR&gt;
      -&lt;BR&gt;
      -&lt;BR&gt;
      -&lt;BR&gt;&lt;/FONT&gt;
    &lt;/TD&gt;
    &lt;TD BGCOLOR="#cccccc" ALIGN=CENTER&gt;&lt;FONT FACE=ARIAL SIZE=3&gt;
      -&lt;BR&gt;
      43P&lt;BR&gt;
      43W&lt;BR&gt;
      43Y&lt;BR&gt;
      -&lt;BR&gt;
      -&lt;BR&gt;
      -&lt;BR&gt;
      -&lt;BR&gt;
      40L&lt;BR&gt;
      40P&lt;BR&gt;
      40Y&lt;BR&gt;
      70Y-T602&lt;BR&gt;
      70L&lt;BR&gt;
      70P&lt;BR&gt;
      70Y&lt;BR&gt;&lt;/FONT&gt;
    &lt;/TD&gt;
    &lt;TD BGCOLOR="#cccccc" ALIGN=CENTER&gt;&lt;FONT FACE=ARIAL SIZE=3&gt;
      -&lt;BR&gt;
      -&lt;BR&gt;
      -&lt;BR&gt;
      -&lt;BR&gt;
      -&lt;BR&gt;
      -&lt;BR&gt;
      -&lt;BR&gt;
      -&lt;BR&gt;
      RT/RTR12&lt;BR&gt;
      RT/RTR12&lt;BR&gt;
      RT/RTR12&lt;BR&gt;
      -&lt;BR&gt;
      RJ/RJR12&lt;BR&gt;
      RJ/RJR12&lt;BR&gt;
      RJ/RJR12&lt;BR&gt;&lt;/FONT&gt;
    &lt;/TD&gt;
  &lt;/TR&gt;
  &lt;TR&gt;
    &lt;TD COLSPAN=8&gt;&amp;nbsp;
    &lt;/TD&gt;
  &lt;/TR&gt;
  &lt;TR&gt;
    &lt;TD COLSPAN=8&gt;
      &lt;FONT SIZE=4 FACE=ARIAL&gt;&lt;B&gt;SQUARE MULTI-TURN&lt;/B&gt;&lt;/FONT&gt;
    &lt;/TD&gt;
  &lt;/TR&gt;
  &lt;TR&gt;
   &lt;TD ALIGN=CENTER&gt;
      &lt;FONT SIZE=3 FACE=ARIAL&gt;&lt;B&gt;BOURN&lt;/B&gt;&lt;/FONT&gt;
    &lt;/TD&gt;
    &lt;TD ALIGN=CENTER&gt;
      &lt;FONT SIZE=3 FACE=ARIAL&gt;&lt;B&gt;BI&amp;nbsp;TECH&lt;/B&gt;&lt;/FONT&gt;
    &lt;/TD&gt;
    &lt;TD ALIGN=CENTER&gt;
      &lt;FONT SIZE=3 FACE=ARIAL&gt;&lt;B&gt;DALE-VISHAY&lt;/B&gt;&lt;/FONT&gt;
    &lt;/TD&gt;
    &lt;TD ALIGN=CENTER&gt;
      &lt;FONT SIZE=3 FACE=ARIAL&gt;&lt;B&gt;PHILIPS/MEPCO&lt;/B&gt;&lt;/FONT&gt;
    &lt;/TD&gt;
    &lt;TD ALIGN=CENTER&gt;
      &lt;FONT SIZE=3 FACE=ARIAL&gt;&lt;B&gt;MURATA&lt;/B&gt;&lt;/FONT&gt;
    &lt;/TD&gt;
    &lt;TD ALIGN=CENTER&gt;
      &lt;FONT SIZE=3 FACE=ARIAL&gt;&lt;B&gt;PANASONIC&lt;/B&gt;&lt;/FONT&gt;
    &lt;/TD&gt;
    &lt;TD ALIGN=CENTER&gt;
      &lt;FONT SIZE=3 FACE=ARIAL&gt;&lt;B&gt;SPECTROL&lt;/B&gt;&lt;/FONT&gt;
    &lt;/TD&gt;
    &lt;TD ALIGN=CENTER&gt;
      &lt;FONT SIZE=3 FACE=ARIAL&gt;&lt;B&gt;MILSPEC&lt;/B&gt;&lt;/FONT&gt;
    &lt;/TD&gt;
  &lt;/TR&gt;
  &lt;TR&gt;
    &lt;TD BGCOLOR="#cccccc" ALIGN=CENTER&gt;&lt;FONT FACE=ARIAL SIZE=3&gt;
      3250L&lt;BR&gt;
      3250P&lt;BR&gt;
      3250W&lt;BR&gt;
      3250X&lt;BR&gt;
      3252P&lt;BR&gt;
      3252W&lt;BR&gt;
      3252X&lt;BR&gt;
      3260P&lt;BR&gt;
      3260W&lt;BR&gt;
      3260X&lt;BR&gt;
      3262P&lt;BR&gt;
      3262W&lt;BR&gt;
      3262X&lt;BR&gt;
      3266P&lt;BR&gt;
      3266W&lt;BR&gt;
      3266X&lt;BR&gt;
      3290H&lt;BR&gt;
      3290P&lt;BR&gt;
      3290W&lt;BR&gt;
      3292P&lt;BR&gt;
      3292W&lt;BR&gt;
      3292X&lt;BR&gt;
      3296P&lt;BR&gt;
      3296W&lt;BR&gt;
      3296X&lt;BR&gt;
      3296Y&lt;BR&gt;
      3296Z&lt;BR&gt;
      3299P&lt;BR&gt;
      3299W&lt;BR&gt;
      3299X&lt;BR&gt;
      3299Y&lt;BR&gt;
      3299Z&lt;BR&gt;&lt;/FONT&gt;
    &lt;/TD&gt;
    &lt;TD BGCOLOR="#cccccc" ALIGN=CENTER&gt;&lt;FONT FACE=ARIAL SIZE=3&gt;
      -&lt;BR&gt;
      66P&amp;nbsp;ALT&lt;BR&gt;
      66W&amp;nbsp;ALT&lt;BR&gt;
      66X&amp;nbsp;ALT&lt;BR&gt;
      66P&amp;nbsp;ALT&lt;BR&gt;
      66W&amp;nbsp;ALT&lt;BR&gt;
      66X&amp;nbsp;ALT&lt;BR&gt;
      -&lt;BR&gt;
      64W&amp;nbsp;ALT&lt;BR&gt;
      -&lt;BR&gt;
      64P&amp;nbsp;ALT&lt;BR&gt;
      64W&amp;nbsp;ALT&lt;BR&gt;
      64X&amp;nbsp;ALT&lt;BR&gt;
      64P&lt;BR&gt;
      64W&lt;BR&gt;
      64X&lt;BR&gt;
      66X&amp;nbsp;ALT&lt;BR&gt;
      66P&amp;nbsp;ALT&lt;BR&gt;
      66W&amp;nbsp;ALT&lt;BR&gt;
      66P&lt;BR&gt;
      66W&lt;BR&gt;
      66X&lt;BR&gt;
      67P&lt;BR&gt;
      67W&lt;BR&gt;
      67X&lt;BR&gt;
      67Y&lt;BR&gt;
      67Z&lt;BR&gt;
      68P&lt;BR&gt;
      68W&lt;BR&gt;
      68X&lt;BR&gt;
      67Y&amp;nbsp;ALT&lt;BR&gt;
      67Z&amp;nbsp;ALT&lt;BR&gt;&lt;/FONT&gt;
    &lt;/TD&gt;
    &lt;TD BGCOLOR="#cccccc" ALIGN=CENTER&gt;&lt;FONT FACE=ARIAL SIZE=3&gt;
      5050&lt;BR&gt;
      5091&lt;BR&gt;
      5080&lt;BR&gt;
      5087&lt;BR&gt;
      -&lt;BR&gt;
      -&lt;BR&gt;
      -&lt;BR&gt;
      -&lt;BR&gt;
      -&lt;BR&gt;
      -&lt;BR&gt;
      -&lt;BR&gt;
      T63YB&lt;BR&gt;
      T63XB&lt;BR&gt;
      -&lt;BR&gt;
      -&lt;BR&gt;
      -&lt;BR&gt;
      5887&lt;BR&gt;
      5891&lt;BR&gt;
      5880&lt;BR&gt;
      -&lt;BR&gt;
      -&lt;BR&gt;
      -&lt;BR&gt;
      T93Z&lt;BR&gt;
      T93YA&lt;BR&gt;
      T93XA&lt;BR&gt;
      T93YB&lt;BR&gt;
      T93XB&lt;BR&gt;
      -&lt;BR&gt;
      -&lt;BR&gt;
      -&lt;BR&gt;
      -&lt;BR&gt;
      -&lt;BR&gt;&lt;/FONT&gt;
    &lt;/TD&gt;
    &lt;TD BGCOLOR="#cccccc" ALIGN=CENTER&gt;&lt;FONT FACE=ARIAL SIZE=3&gt;
      -&lt;BR&gt;
      -&lt;BR&gt;
      -&lt;BR&gt;
      -&lt;BR&gt;
      -&lt;BR&gt;
      -&lt;BR&gt;
      -&lt;BR&gt;
      -&lt;BR&gt;
      -&lt;BR&gt;
      -&lt;BR&gt;
      8026EKP&lt;BR&gt;
      8026EKW&lt;BR&gt;
      8026EKM&lt;BR&gt;
      8026EKP&lt;BR&gt;
      8026EKB&lt;BR&gt;
      8026EKM&lt;BR&gt;
      1309X&lt;BR&gt;
      1309P&lt;BR&gt;
      1309W&lt;BR&gt;
      8024EKP&lt;BR&gt;
      8024EKW&lt;BR&gt;
      8024EKN&lt;BR&gt;
      RJ-9P/CT9P&lt;BR&gt;
      RJ-9W&lt;BR&gt;
      RJ-9X&lt;BR&gt;
      -&lt;BR&gt;
      -&lt;BR&gt;
      -&lt;BR&gt;
      -&lt;BR&gt;
      -&lt;BR&gt;
      -&lt;BR&gt;
      -&lt;BR&gt;&lt;/FONT&gt;
    &lt;/TD&gt;
    &lt;TD BGCOLOR="#cccccc" ALIGN=CENTER&gt;&lt;FONT FACE=ARIAL SIZE=3&gt;
      -&lt;BR&gt;
      -&lt;BR&gt;
      -&lt;BR&gt;
      -&lt;BR&gt;
      -&lt;BR&gt;
      -&lt;BR&gt;
      -&lt;BR&gt;
      -&lt;BR&gt;
      -&lt;BR&gt;
      -&lt;BR&gt;
      3103P&lt;BR&gt;
      3103Y&lt;BR&gt;
      3103Z&lt;BR&gt;
      3103P&lt;BR&gt;
      3103Y&lt;BR&gt;
      3103Z&lt;BR&gt;
      -&lt;BR&gt;
      -&lt;BR&gt;
      -&lt;BR&gt;
      -&lt;BR&gt;
      -&lt;BR&gt;
      -&lt;BR&gt;
      3105P/3106P&lt;BR&gt;
      3105W/3106W&lt;BR&gt;
      3105X/3106X&lt;BR&gt;
      3105Y/3106Y&lt;BR&gt;
      3105Z/3105Z&lt;BR&gt;
      3102P&lt;BR&gt;
      3102W&lt;BR&gt;
      3102X&lt;BR&gt;
      3102Y&lt;BR&gt;
      3102Z&lt;BR&gt;&lt;/FONT&gt;
    &lt;/TD&gt;
    &lt;TD BGCOLOR="#cccccc" ALIGN=CENTER&gt;&lt;FONT FACE=ARIAL SIZE=3&gt;
      -&lt;BR&gt;
      -&lt;BR&gt;
      -&lt;BR&gt;
      -&lt;BR&gt;
      -&lt;BR&gt;
      -&lt;BR&gt;
      -&lt;BR&gt;
      -&lt;BR&gt;
      -&lt;BR&gt;
      -&lt;BR&gt;
      -&lt;BR&gt;
      -&lt;BR&gt;
      -&lt;BR&gt;
      -&lt;BR&gt;
      -&lt;BR&gt;
      -&lt;BR&gt;
      -&lt;BR&gt;
      -&lt;BR&gt;
      -&lt;BR&gt;
      -&lt;BR&gt;
      -&lt;BR&gt;
      -&lt;BR&gt;
      EVMCBG&lt;BR&gt;
      EVMCCG&lt;BR&gt;
      -&lt;BR&gt;
      -&lt;BR&gt;
      -&lt;BR&gt;
      -&lt;BR&gt;
      -&lt;BR&gt;
      -&lt;BR&gt;
      -&lt;BR&gt;
      -&lt;BR&gt;&lt;/FONT&gt;
    &lt;/TD&gt;
    &lt;TD BGCOLOR="#cccccc" ALIGN=CENTER&gt;&lt;FONT FACE=ARIAL SIZE=3&gt;
      55-1-X&lt;BR&gt;
      55-4-X&lt;BR&gt;
      55-3-X&lt;BR&gt;
      55-2-X&lt;BR&gt;
      -&lt;BR&gt;
      -&lt;BR&gt;
      -&lt;BR&gt;
      -&lt;BR&gt;
      -&lt;BR&gt;
      -&lt;BR&gt;
      -&lt;BR&gt;
      -&lt;BR&gt;
      -&lt;BR&gt;
      -&lt;BR&gt;
      -&lt;BR&gt;
      -&lt;BR&gt;
      50-2-X&lt;BR&gt;
      50-4-X&lt;BR&gt;
      50-3-X&lt;BR&gt;
      -&lt;BR&gt;
      -&lt;BR&gt;
      -&lt;BR&gt;
      64P&lt;BR&gt;
      64W&lt;BR&gt;
      64X&lt;BR&gt;
      64Y&lt;BR&gt;
      64Z&lt;BR&gt;
      -&lt;BR&gt;
      -&lt;BR&gt;
      -&lt;BR&gt;
      -&lt;BR&gt;
      -&lt;BR&gt;&lt;/FONT&gt;
    &lt;/TD&gt;
    &lt;TD BGCOLOR="#cccccc" ALIGN=CENTER&gt;&lt;FONT FACE=ARIAL SIZE=3&gt;
      RT/RTR22&lt;BR&gt;
      RT/RTR22&lt;BR&gt;
      RT/RTR22&lt;BR&gt;
      RT/RTR22&lt;BR&gt;
      RJ/RJR22&lt;BR&gt;
      RJ/RJR22&lt;BR&gt;
      RJ/RJR22&lt;BR&gt;
      RT/RTR26&lt;BR&gt;
      RT/RTR26&lt;BR&gt;
      RT/RTR26&lt;BR&gt;
      RJ/RJR26&lt;BR&gt;
      RJ/RJR26&lt;BR&gt;
      RJ/RJR26&lt;BR&gt;
      RJ/RJR26&lt;BR&gt;
      RJ/RJR26&lt;BR&gt;
      RJ/RJR26&lt;BR&gt;
      RT/RTR24&lt;BR&gt;
      RT/RTR24&lt;BR&gt;
      RT/RTR24&lt;BR&gt;
      RJ/RJR24&lt;BR&gt;
      RJ/RJR24&lt;BR&gt;
      RJ/RJR24&lt;BR&gt;
      RJ/RJR24&lt;BR&gt;
      RJ/RJR24&lt;BR&gt;
      RJ/RJR24&lt;BR&gt;
      -&lt;BR&gt;
      -&lt;BR&gt;
      -&lt;BR&gt;
      -&lt;BR&gt;
      -&lt;BR&gt;
      -&lt;BR&gt;
      -&lt;BR&gt;&lt;/FONT&gt;
    &lt;/TD&gt;
  &lt;/TR&gt;
  &lt;TR&gt;
    &lt;TD COLSPAN=8&gt;&amp;nbsp;
    &lt;/TD&gt;
  &lt;/TR&gt;
  &lt;TR&gt;
    &lt;TD COLSPAN=8&gt;
      &lt;FONT SIZE=4 FACE=ARIAL&gt;&lt;B&gt;SINGLE TURN&lt;/B&gt;&lt;/FONT&gt;
    &lt;/TD&gt;
  &lt;/TR&gt;
  &lt;TR&gt;
    &lt;TD ALIGN=CENTER&gt;
      &lt;FONT SIZE=3 FACE=ARIAL&gt;&lt;B&gt;BOURN&lt;/B&gt;&lt;/FONT&gt;
    &lt;/TD&gt;
    &lt;TD ALIGN=CENTER&gt;
      &lt;FONT SIZE=3 FACE=ARIAL&gt;&lt;B&gt;BI&amp;nbsp;TECH&lt;/B&gt;&lt;/FONT&gt;
    &lt;/TD&gt;
    &lt;TD ALIGN=CENTER&gt;
      &lt;FONT SIZE=3 FACE=ARIAL&gt;&lt;B&gt;DALE-VISHAY&lt;/B&gt;&lt;/FONT&gt;
    &lt;/TD&gt;
    &lt;TD ALIGN=CENTER&gt;
      &lt;FONT SIZE=3 FACE=ARIAL&gt;&lt;B&gt;PHILIPS/MEPCO&lt;/B&gt;&lt;/FONT&gt;
    &lt;/TD&gt;
    &lt;TD ALIGN=CENTER&gt;
      &lt;FONT SIZE=3 FACE=ARIAL&gt;&lt;B&gt;MURATA&lt;/B&gt;&lt;/FONT&gt;
    &lt;/TD&gt;
    &lt;TD ALIGN=CENTER&gt;
      &lt;FONT SIZE=3 FACE=ARIAL&gt;&lt;B&gt;PANASONIC&lt;/B&gt;&lt;/FONT&gt;
    &lt;/TD&gt;
    &lt;TD ALIGN=CENTER&gt;
      &lt;FONT SIZE=3 FACE=ARIAL&gt;&lt;B&gt;SPECTROL&lt;/B&gt;&lt;/FONT&gt;
    &lt;/TD&gt;
    &lt;TD ALIGN=CENTER&gt;
      &lt;FONT SIZE=3 FACE=ARIAL&gt;&lt;B&gt;MILSPEC&lt;/B&gt;&lt;/FONT&gt;
    &lt;/TD&gt;
  &lt;/TR&gt;
  &lt;TR&gt;
    &lt;TD BGCOLOR="#cccccc" ALIGN=CENTER&gt;&lt;FONT FACE=ARIAL SIZE=3&gt;
      3323P&lt;BR&gt;
      3323S&lt;BR&gt;
      3323W&lt;BR&gt;
      3329H&lt;BR&gt;
      3329P&lt;BR&gt;
      3329W&lt;BR&gt;
      3339H&lt;BR&gt;
      3339P&lt;BR&gt;
      3339W&lt;BR&gt;
      3352E&lt;BR&gt;
      3352H&lt;BR&gt;
      3352K&lt;BR&gt;
      3352P&lt;BR&gt;
      3352T&lt;BR&gt;
      3352V&lt;BR&gt;
      3352W&lt;BR&gt;
      3362H&lt;BR&gt;
      3362M&lt;BR&gt;
      3362P&lt;BR&gt;
      3362R&lt;BR&gt;
      3362S&lt;BR&gt;
      3362U&lt;BR&gt;
      3362W&lt;BR&gt;
      3362X&lt;BR&gt;
      3386B&lt;BR&gt;
      3386C&lt;BR&gt;
      3386F&lt;BR&gt;
      3386H&lt;BR&gt;
      3386K&lt;BR&gt;
      3386M&lt;BR&gt;
      3386P&lt;BR&gt;
      3386S&lt;BR&gt;
      3386W&lt;BR&gt;
      3386X&lt;BR&gt;&lt;/FONT&gt;
    &lt;/TD&gt;
    &lt;TD BGCOLOR="#cccccc" ALIGN=CENTER&gt;&lt;FONT FACE=ARIAL SIZE=3&gt;
      25P&lt;BR&gt;
      25S&lt;BR&gt;
      25RX&lt;BR&gt;
      82P&lt;BR&gt;
      82M&lt;BR&gt;
      82PA&lt;BR&gt;
      -&lt;BR&gt;
      -&lt;BR&gt;
      -&lt;BR&gt;
      91E&lt;BR&gt;
      91X&lt;BR&gt;
      91T&lt;BR&gt;
      91B&lt;BR&gt;
      91A&lt;BR&gt;
      91V&lt;BR&gt;
      91W&lt;BR&gt;
      25W&lt;BR&gt;
      25V&lt;BR&gt;
      25P&lt;BR&gt;
      -&lt;BR&gt;
      25S&lt;BR&gt;
      25U&lt;BR&gt;
      25RX&lt;BR&gt;
      25X&lt;BR&gt;
      72XW&lt;BR&gt;
      72XL&lt;BR&gt;
      72PM&lt;BR&gt;
      72RX&lt;BR&gt;
      -&lt;BR&gt;
      72PX&lt;BR&gt;
      72P&lt;BR&gt;
      72RXW&lt;BR&gt;
      72RXL&lt;BR&gt;
      72X&lt;BR&gt;&lt;/FONT&gt;
    &lt;/TD&gt;
    &lt;TD BGCOLOR="#cccccc" ALIGN=CENTER&gt;&lt;FONT FACE=ARIAL SIZE=3&gt;
      -&lt;BR&gt;
      -&lt;BR&gt;
      -&lt;BR&gt;
      T7YB&lt;BR&gt;
      T7YA&lt;BR&gt;
      -&lt;BR&gt;
      -&lt;BR&gt;
      -&lt;BR&gt;
      -&lt;BR&gt;
      -&lt;BR&gt;
      -&lt;BR&gt;
      -&lt;BR&gt;
      -&lt;BR&gt;
      -&lt;BR&gt;
      -&lt;BR&gt;
      -&lt;BR&gt;
      -&lt;BR&gt;
      TXD&lt;BR&gt;
      TYA&lt;BR&gt;
      TYP&lt;BR&gt;
      -&lt;BR&gt;
      TYD&lt;BR&gt;
      TX&lt;BR&gt;
      -&lt;BR&gt;
      150SX&lt;BR&gt;
      100SX&lt;BR&gt;
      102T&lt;BR&gt;
      101S&lt;BR&gt;
      190T&lt;BR&gt;
      150TX&lt;BR&gt;
      101&lt;BR&gt;
      -&lt;BR&gt;
      -&lt;BR&gt;
      101SX&lt;BR&gt;&lt;/FONT&gt;
    &lt;/TD&gt;
    &lt;TD BGCOLOR="#cccccc" ALIGN=CENTER&gt;&lt;FONT FACE=ARIAL SIZE=3&gt;
      ET6P&lt;BR&gt;
      ET6S&lt;BR&gt;
      ET6X&lt;BR&gt;
      RJ-6W/8014EMW&lt;BR&gt;
      RJ-6P/8014EMP&lt;BR&gt;
      RJ-6X/8014EMX&lt;BR&gt;
      TM7W&lt;BR&gt;
      TM7P&lt;BR&gt;
      TM7X&lt;BR&gt;
      -&lt;BR&gt;
      8017SMS&lt;BR&gt;
      -&lt;BR&gt;
      8017SMB&lt;BR&gt;
      8017SMA&lt;BR&gt;
      -&lt;BR&gt;
      -&lt;BR&gt;
      CT-6W&lt;BR&gt;
      CT-6H&lt;BR&gt;
      CT-6P&lt;BR&gt;
      CT-6R&lt;BR&gt;
      -&lt;BR&gt;
      CT-6V&lt;BR&gt;
      CT-6X&lt;BR&gt;
      -&lt;BR&gt;
      -&lt;BR&gt;
      8038EKV&lt;BR&gt;
      -&lt;BR&gt;
      8038EKX&lt;BR&gt;
      -&lt;BR&gt;
      -&lt;BR&gt;
      8038EKP&lt;BR&gt;
      8038EKZ&lt;BR&gt;
      8038EKW&lt;BR&gt;
      -&lt;BR&gt;&lt;/FONT&gt;
    &lt;/TD&gt;
    &lt;TD BGCOLOR="#cccccc" ALIGN=CENTER&gt;&lt;FONT FACE=ARIAL SIZE=3&gt;
      -&lt;BR&gt;
      -&lt;BR&gt;
      -&lt;BR&gt;
      3321H&lt;BR&gt;
      3321P&lt;BR&gt;
      3321N&lt;BR&gt;
      1102H&lt;BR&gt;
      1102P&lt;BR&gt;
      1102T&lt;BR&gt;
      RVA0911V304A&lt;BR&gt;
      -&lt;BR&gt;
      RVA0911H413A&lt;BR&gt;
      RVG0707V100A&lt;BR&gt;
      RVA0607V(H)306A&lt;BR&gt;
      RVA1214H213A&lt;BR&gt;
      -&lt;BR&gt;
      -&lt;BR&gt;
      -&lt;BR&gt;
      -&lt;BR&gt;
      -&lt;BR&gt;
      -&lt;BR&gt;
      -&lt;BR&gt;
      -&lt;BR&gt;
      -&lt;BR&gt;
      3104B&lt;BR&gt;
      3104C&lt;BR&gt;
      3104F&lt;BR&gt;
      3104H&lt;BR&gt;
      -&lt;BR&gt;
      3104M&lt;BR&gt;
      3104P&lt;BR&gt;
      3104S&lt;BR&gt;
      3104W&lt;BR&gt;
      3104X&lt;BR&gt;&lt;/FONT&gt;
    &lt;/TD&gt;
    &lt;TD BGCOLOR="#cccccc" ALIGN=CENTER&gt;&lt;FONT FACE=ARIAL SIZE=3&gt;
      EVMQ0G&lt;BR&gt;
      EVMQIG&lt;BR&gt;
      EVMQ3G&lt;BR&gt;
      EVMS0G&lt;BR&gt;
      EVMQ0G&lt;BR&gt;
      EVMG0G&lt;BR&gt;
      -&lt;BR&gt;
      -&lt;BR&gt;
      -&lt;BR&gt;
      EVMK4GA00B&lt;BR&gt;
      EVM30GA00B&lt;BR&gt;
      EVMK0GA00B&lt;BR&gt;
      EVM38GA00B&lt;BR&gt;
      EVMB6&lt;BR&gt;
      EVLQ0&lt;BR&gt;
      -&lt;BR&gt;
      EVMMSG&lt;BR&gt;
      EVMMBG&lt;BR&gt;
      EVMMAG&lt;BR&gt;
      -&lt;BR&gt;
      -&lt;BR&gt;
      EVMMCS&lt;BR&gt;
      -&lt;BR&gt;
      -&lt;BR&gt;
      -&lt;BR&gt;
      -&lt;BR&gt;
      -&lt;BR&gt;
      EVMM1&lt;BR&gt;
      -&lt;BR&gt;
      -&lt;BR&gt;
      EVMM0&lt;BR&gt;
      -&lt;BR&gt;
      -&lt;BR&gt;
      EVMM3&lt;BR&gt;&lt;/FONT&gt;
    &lt;/TD&gt;
    &lt;TD BGCOLOR="#cccccc" ALIGN=CENTER&gt;&lt;FONT FACE=ARIAL SIZE=3&gt;
      -&lt;BR&gt;
      -&lt;BR&gt;
      -&lt;BR&gt;
      62-3-1&lt;BR&gt;
      62-1-2&lt;BR&gt;
      -&lt;BR&gt;
      -&lt;BR&gt;
      -&lt;BR&gt;
      -&lt;BR&gt;
      -&lt;BR&gt;
      -&lt;BR&gt;
      -&lt;BR&gt;
      -&lt;BR&gt;
      -&lt;BR&gt;
      -&lt;BR&gt;
      -&lt;BR&gt;
      67R&lt;BR&gt;
      -&lt;BR&gt;
      67P&lt;BR&gt;
      -&lt;BR&gt;
      -&lt;BR&gt;
      -&lt;BR&gt;
      -&lt;BR&gt;
      67X&lt;BR&gt;
      63V&lt;BR&gt;
      63S&lt;BR&gt;
      63M&lt;BR&gt;
      -&lt;BR&gt;
      -&lt;BR&gt;
      63H&lt;BR&gt;
      63P&lt;BR&gt;
      -&lt;BR&gt;
      -&lt;BR&gt;
      63X&lt;BR&gt;&lt;/FONT&gt;
    &lt;/TD&gt;
    &lt;TD BGCOLOR="#cccccc" ALIGN=CENTER&gt;&lt;FONT FACE=ARIAL SIZE=3&gt;
      -&lt;BR&gt;
      -&lt;BR&gt;
      -&lt;BR&gt;
      RJ/RJR50&lt;BR&gt;
      RJ/RJR50&lt;BR&gt;
      RJ/RJR50&lt;BR&gt;
      -&lt;BR&gt;
      -&lt;BR&gt;
      -&lt;BR&gt;
      -&lt;BR&gt;
      -&lt;BR&gt;
      -&lt;BR&gt;
      -&lt;BR&gt;
      -&lt;BR&gt;
      -&lt;BR&gt;
      -&lt;BR&gt;
      -&lt;BR&gt;
      -&lt;BR&gt;
      -&lt;BR&gt;
      -&lt;BR&gt;
      -&lt;BR&gt;
      -&lt;BR&gt;
      -&lt;BR&gt;
      -&lt;BR&gt;
      -&lt;BR&gt;
      -&lt;BR&gt;
      -&lt;BR&gt;
      -&lt;BR&gt;
      -&lt;BR&gt;
      -&lt;BR&gt;
      -&lt;BR&gt;
      -&lt;BR&gt;
      -&lt;BR&gt;
      -&lt;BR&gt;&lt;/FONT&gt;
    &lt;/TD&gt;
  &lt;/TR&gt;
&lt;/TABLE&gt;
&lt;P&gt;&amp;nbsp;&lt;P&gt;
&lt;TABLE BORDER=0 CELLSPACING=1 CELLPADDING=3&gt;
  &lt;TR&gt;
    &lt;TD COLSPAN=7&gt;
      &lt;FONT color="#0000FF" SIZE=4 FACE=ARIAL&gt;&lt;B&gt;SMD TRIM-POT CROSS REFERENCE&lt;/B&gt;&lt;/FONT&gt;
      &lt;P&gt;
      &lt;FONT SIZE=4 FACE=ARIAL&gt;&lt;B&gt;MULTI-TURN&lt;/B&gt;&lt;/FONT&gt;
    &lt;/TD&gt;
  &lt;/TR&gt;
  &lt;TR&gt;
    &lt;TD&gt;
      &lt;FONT SIZE=3 FACE=ARIAL&gt;&lt;B&gt;BOURNS&lt;/B&gt;&lt;/FONT&gt;
    &lt;/TD&gt;
    &lt;TD&gt;
      &lt;FONT SIZE=3 FACE=ARIAL&gt;&lt;B&gt;BI&amp;nbsp;TECH&lt;/B&gt;&lt;/FONT&gt;
    &lt;/TD&gt;
    &lt;TD&gt;
      &lt;FONT SIZE=3 FACE=ARIAL&gt;&lt;B&gt;DALE-VISHAY&lt;/B&gt;&lt;/FONT&gt;
    &lt;/TD&gt;
    &lt;TD&gt;
      &lt;FONT SIZE=3 FACE=ARIAL&gt;&lt;B&gt;PHILIPS/MEPCO&lt;/B&gt;&lt;/FONT&gt;
    &lt;/TD&gt;
    &lt;TD&gt;
      &lt;FONT SIZE=3 FACE=ARIAL&gt;&lt;B&gt;PANASONIC&lt;/B&gt;&lt;/FONT&gt;
    &lt;/TD&gt;
    &lt;TD&gt;
      &lt;FONT SIZE=3 FACE=ARIAL&gt;&lt;B&gt;TOCOS&lt;/B&gt;&lt;/FONT&gt;
    &lt;/TD&gt;
    &lt;TD&gt;
      &lt;FONT SIZE=3 FACE=ARIAL&gt;&lt;B&gt;AUX/KYOCERA&lt;/B&gt;&lt;/FONT&gt;
    &lt;/TD&gt;
  &lt;/TR&gt;
  &lt;TR&gt;
    &lt;TD BGCOLOR="#cccccc" ALIGN=CENTER&gt;&lt;FONT FACE=ARIAL SIZE=3&gt;
      3224G&lt;BR&gt;
      3224J&lt;BR&gt;
      3224W&lt;BR&gt;
      3269P&lt;BR&gt;
      3269W&lt;BR&gt;
      3269X&lt;BR&gt;&lt;/FONT&gt;
    &lt;/TD&gt;
    &lt;TD BGCOLOR="#cccccc" ALIGN=CENTER&gt;&lt;FONT FACE=ARIAL SIZE=3&gt;
      44G&lt;BR&gt;
      44J&lt;BR&gt;
      44W&lt;BR&gt;
      84P&lt;BR&gt;
      84W&lt;BR&gt;
      84X&lt;BR&gt;&lt;/FONT&gt;
    &lt;/TD&gt;
    &lt;TD BGCOLOR="#cccccc" ALIGN=CENTER&gt;&lt;FONT FACE=ARIAL SIZE=3&gt;
      -&lt;BR&gt;
      -&lt;BR&gt;
      -&lt;BR&gt;
      ST63Z&lt;BR&gt;
      ST63Y&lt;BR&gt;
      -&lt;BR&gt;&lt;/FONT&gt;
    &lt;/TD&gt;
    &lt;TD BGCOLOR="#cccccc" ALIGN=CENTER&gt;&lt;FONT FACE=ARIAL SIZE=3&gt;
      -&lt;BR&gt;
      -&lt;BR&gt;
      -&lt;BR&gt;
      ST5P&lt;BR&gt;
      ST5W&lt;BR&gt;
      ST5X&lt;BR&gt;&lt;/FONT&gt;
    &lt;/TD&gt;
    &lt;TD BGCOLOR="#cccccc" ALIGN=CENTER&gt;&lt;FONT FACE=ARIAL SIZE=3&gt;
      -&lt;BR&gt;
      -&lt;BR&gt;
      -&lt;BR&gt;
      -&lt;BR&gt;
      -&lt;BR&gt;
      -&lt;BR&gt;&lt;/FONT&gt;
    &lt;/TD&gt;
    &lt;TD BGCOLOR="#cccccc" ALIGN=CENTER&gt;&lt;FONT FACE=ARIAL SIZE=3&gt;
      -&lt;BR&gt;
      -&lt;BR&gt;
      -&lt;BR&gt;
      -&lt;BR&gt;
      -&lt;BR&gt;
      -&lt;BR&gt;&lt;/FONT&gt;
    &lt;/TD&gt;
    &lt;TD BGCOLOR="#cccccc" ALIGN=CENTER&gt;&lt;FONT FACE=ARIAL SIZE=3&gt;
      -&lt;BR&gt;
      -&lt;BR&gt;
      -&lt;BR&gt;
      -&lt;BR&gt;
      -&lt;BR&gt;
      -&lt;BR&gt;&lt;/FONT&gt;
    &lt;/TD&gt;
  &lt;/TR&gt;
  &lt;TR&gt;
    &lt;TD COLSPAN=7&gt;&amp;nbsp;
    &lt;/TD&gt;
  &lt;/TR&gt;
  &lt;TR&gt;
    &lt;TD COLSPAN=7&gt;
      &lt;FONT SIZE=4 FACE=ARIAL&gt;&lt;B&gt;SINGLE TURN&lt;/B&gt;&lt;/FONT&gt;
    &lt;/TD&gt;
  &lt;/TR&gt;
  &lt;TR&gt;
    &lt;TD&gt;
      &lt;FONT SIZE=3 FACE=ARIAL&gt;&lt;B&gt;BOURNS&lt;/B&gt;&lt;/FONT&gt;
    &lt;/TD&gt;
    &lt;TD&gt;
      &lt;FONT SIZE=3 FACE=ARIAL&gt;&lt;B&gt;BI&amp;nbsp;TECH&lt;/B&gt;&lt;/FONT&gt;
    &lt;/TD&gt;
    &lt;TD&gt;
      &lt;FONT SIZE=3 FACE=ARIAL&gt;&lt;B&gt;DALE-VISHAY&lt;/B&gt;&lt;/FONT&gt;
    &lt;/TD&gt;
    &lt;TD&gt;
      &lt;FONT SIZE=3 FACE=ARIAL&gt;&lt;B&gt;PHILIPS/MEPCO&lt;/B&gt;&lt;/FONT&gt;
    &lt;/TD&gt;
    &lt;TD&gt;
      &lt;FONT SIZE=3 FACE=ARIAL&gt;&lt;B&gt;PANASONIC&lt;/B&gt;&lt;/FONT&gt;
    &lt;/TD&gt;
    &lt;TD&gt;
      &lt;FONT SIZE=3 FACE=ARIAL&gt;&lt;B&gt;TOCOS&lt;/B&gt;&lt;/FONT&gt;
    &lt;/TD&gt;
    &lt;TD&gt;
      &lt;FONT SIZE=3 FACE=ARIAL&gt;&lt;B&gt;AUX/KYOCERA&lt;/B&gt;&lt;/FONT&gt;
    &lt;/TD&gt;
  &lt;/TR&gt;
  &lt;TR&gt;
    &lt;TD BGCOLOR="#cccccc" ALIGN=CENTER&gt;&lt;FONT FACE=ARIAL SIZE=3&gt;
      3314G&lt;BR&gt;
      3314J&lt;BR&gt;
      3364A/B&lt;BR&gt;
      3364C/D&lt;BR&gt;
      3364W/X&lt;BR&gt;
      3313G&lt;BR&gt;
      3313J&lt;BR&gt;&lt;/FONT&gt;
    &lt;/TD&gt;
    &lt;TD BGCOLOR="#cccccc" ALIGN=CENTER&gt;&lt;FONT FACE=ARIAL SIZE=3&gt;
      23B&lt;BR&gt;
      23A&lt;BR&gt;
      21X&lt;BR&gt;
      21W&lt;BR&gt;
      -&lt;BR&gt;
      22B&lt;BR&gt;
      22A&lt;BR&gt;&lt;/FONT&gt;
    &lt;/TD&gt;
    &lt;TD BGCOLOR="#cccccc" ALIGN=CENTER&gt;&lt;FONT FACE=ARIAL SIZE=3&gt;
      ST5YL/ST53YL&lt;BR&gt;
      ST5YJ/5T53YJ&lt;BR&gt;
      ST-23A&lt;BR&gt;
      ST-22B&lt;BR&gt;
      ST-22&lt;BR&gt;
      -&lt;BR&gt;
      -&lt;BR&gt;&lt;/FONT&gt;
    &lt;/TD&gt;
    &lt;TD BGCOLOR="#cccccc" ALIGN=CENTER&gt;&lt;FONT FACE=ARIAL SIZE=3&gt;
      ST-4B&lt;BR&gt;
      ST-4A&lt;BR&gt;
      -&lt;BR&gt;
      -&lt;BR&gt;
      -&lt;BR&gt;
      ST-3B&lt;BR&gt;
      ST-3A&lt;BR&gt;&lt;/FONT&gt;
    &lt;/TD&gt;
    &lt;TD BGCOLOR="#cccccc" ALIGN=CENTER&gt;&lt;FONT FACE=ARIAL SIZE=3&gt;
      -&lt;BR&gt;
      EVM-6YS&lt;BR&gt;
      EVM-1E&lt;BR&gt;
      EVM-1G&lt;BR&gt;
      EVM-1D&lt;BR&gt;
      -&lt;BR&gt;
      -&lt;BR&gt;&lt;/FONT&gt;
    &lt;/TD&gt;
    &lt;TD BGCOLOR="#cccccc" ALIGN=CENTER&gt;&lt;FONT FACE=ARIAL SIZE=3&gt;
      G4B&lt;BR&gt;
      G4A&lt;BR&gt;
      TR04-3S1&lt;BR&gt;
      TRG04-2S1&lt;BR&gt;
      -&lt;BR&gt;
      -&lt;BR&gt;
      -&lt;BR&gt;&lt;/FONT&gt;
    &lt;/TD&gt;
    &lt;TD BGCOLOR="#cccccc" ALIGN=CENTER&gt;&lt;FONT FACE=ARIAL SIZE=3&gt;
      -&lt;BR&gt;
      -&lt;BR&gt;
      DVR-43A&lt;BR&gt;
      CVR-42C&lt;BR&gt;
      CVR-42A/C&lt;BR&gt;
      -&lt;BR&gt;
      -&lt;BR&gt;&lt;/FONT&gt;
    &lt;/TD&gt;
  &lt;/TR&gt;
&lt;/TABLE&gt;
&lt;P&gt;
&lt;FONT SIZE=4 FACE=ARIAL&gt;&lt;B&gt;ALT =&amp;nbsp;ALTERNATE&lt;/B&gt;&lt;/FONT&gt;
&lt;P&gt;

&amp;nbsp;
&lt;P&gt;
&lt;/td&gt;
&lt;/tr&gt;
&lt;/table&gt;</description>
<packages>
<package name="C1210K" urn="urn:adsk.eagle:footprint:23190/1" library_version="5">
<description>&lt;b&gt;Ceramic Chip Capacitor KEMET 1210 reflow solder&lt;/b&gt;&lt;p&gt;
Metric Code Size 3225</description>
<wire x1="-1.525" y1="1.175" x2="1.525" y2="1.175" width="0.1016" layer="51"/>
<wire x1="1.525" y1="-1.175" x2="-1.525" y2="-1.175" width="0.1016" layer="51"/>
<smd name="1" x="-1.5" y="0" dx="1.5" dy="2.9" layer="1"/>
<smd name="2" x="1.5" y="0" dx="1.5" dy="2.9" layer="1"/>
<text x="-1.6" y="1.55" size="1.016" layer="25">&gt;NAME</text>
<text x="-1.6" y="-2.575" size="1.016" layer="27">&gt;VALUE</text>
<rectangle x1="-1.6" y1="-1.25" x2="-1.1" y2="1.25" layer="51"/>
<rectangle x1="1.1" y1="-1.25" x2="1.6" y2="1.25" layer="51"/>
</package>
<package name="R1210W" urn="urn:adsk.eagle:footprint:23050/1" library_version="5">
<description>&lt;b&gt;RESISTOR&lt;/b&gt;&lt;p&gt;
wave soldering</description>
<wire x1="-0.913" y1="1.219" x2="0.939" y2="1.219" width="0.1524" layer="51"/>
<wire x1="-0.913" y1="-1.219" x2="0.939" y2="-1.219" width="0.1524" layer="51"/>
<wire x1="-2.473" y1="1.483" x2="2.473" y2="1.483" width="0.0508" layer="39"/>
<wire x1="2.473" y1="1.483" x2="2.473" y2="-1.483" width="0.0508" layer="39"/>
<wire x1="2.473" y1="-1.483" x2="-2.473" y2="-1.483" width="0.0508" layer="39"/>
<wire x1="-2.473" y1="-1.483" x2="-2.473" y2="1.483" width="0.0508" layer="39"/>
<smd name="1" x="-1.499" y="0" dx="1.8" dy="1.8" layer="1"/>
<smd name="2" x="1.499" y="0" dx="1.8" dy="1.8" layer="1"/>
<text x="-2.54" y="1.905" size="1.27" layer="25">&gt;NAME</text>
<text x="-2.54" y="-3.175" size="1.27" layer="27">&gt;VALUE</text>
<rectangle x1="-1.651" y1="-1.3081" x2="-0.9009" y2="1.2918" layer="51"/>
<rectangle x1="0.9144" y1="-1.3081" x2="1.6645" y2="1.2918" layer="51"/>
<rectangle x1="-0.3" y1="-0.8001" x2="0.3" y2="0.8001" layer="35"/>
</package>
</packages>
<packages3d>
<package3d name="C1210K" urn="urn:adsk.eagle:package:23683/2" type="model" library_version="5">
<description>Ceramic Chip Capacitor KEMET 1210 reflow solder
Metric Code Size 3225</description>
<packageinstances>
<packageinstance name="C1210K"/>
</packageinstances>
</package3d>
<package3d name="R1210W" urn="urn:adsk.eagle:package:23541/1" type="box" library_version="5">
<description>RESISTOR
wave soldering</description>
<packageinstances>
<packageinstance name="R1210W"/>
</packageinstances>
</package3d>
</packages3d>
</library>
<library name="diode" urn="urn:adsk.eagle:library:210">
<description>&lt;b&gt;Diodes&lt;/b&gt;&lt;p&gt;
Based on the following sources:
&lt;ul&gt;
&lt;li&gt;Motorola : www.onsemi.com
&lt;li&gt;Fairchild : www.fairchildsemi.com
&lt;li&gt;Philips : www.semiconductors.com
&lt;li&gt;Vishay : www.vishay.de
&lt;/ul&gt;
&lt;author&gt;Created by librarian@cadsoft.de&lt;/author&gt;</description>
<packages>
<package name="DO35-10" urn="urn:adsk.eagle:footprint:43092/1" library_version="3">
<description>&lt;B&gt;DIODE&lt;/B&gt;&lt;p&gt;
diameter 2 mm, horizontal, grid 10.16 mm</description>
<wire x1="5.08" y1="0" x2="4.191" y2="0" width="0.508" layer="51"/>
<wire x1="-5.08" y1="0" x2="-4.191" y2="0" width="0.508" layer="51"/>
<wire x1="-0.635" y1="0" x2="0" y2="0" width="0.1524" layer="21"/>
<wire x1="1.016" y1="0.635" x2="1.016" y2="-0.635" width="0.1524" layer="21"/>
<wire x1="1.016" y1="-0.635" x2="0" y2="0" width="0.1524" layer="21"/>
<wire x1="0" y1="0" x2="1.524" y2="0" width="0.1524" layer="21"/>
<wire x1="0" y1="0" x2="1.016" y2="0.635" width="0.1524" layer="21"/>
<wire x1="0" y1="0.635" x2="0" y2="0" width="0.1524" layer="21"/>
<wire x1="0" y1="0" x2="0" y2="-0.635" width="0.1524" layer="21"/>
<wire x1="2.032" y1="1.016" x2="2.286" y2="0.762" width="0.1524" layer="21" curve="-90"/>
<wire x1="-2.286" y1="0.762" x2="-2.032" y2="1.016" width="0.1524" layer="21" curve="-90"/>
<wire x1="-2.286" y1="-0.762" x2="-2.032" y2="-1.016" width="0.1524" layer="21" curve="90"/>
<wire x1="2.032" y1="-1.016" x2="2.286" y2="-0.762" width="0.1524" layer="21" curve="90"/>
<wire x1="2.286" y1="-0.762" x2="2.286" y2="0.762" width="0.1524" layer="21"/>
<wire x1="-2.286" y1="0.762" x2="-2.286" y2="-0.762" width="0.1524" layer="21"/>
<wire x1="-2.032" y1="1.016" x2="2.032" y2="1.016" width="0.1524" layer="21"/>
<wire x1="-2.032" y1="-1.016" x2="2.032" y2="-1.016" width="0.1524" layer="21"/>
<pad name="C" x="-5.08" y="0" drill="0.8128" shape="long"/>
<pad name="A" x="5.08" y="0" drill="0.8128" shape="long"/>
<text x="-2.159" y="1.27" size="1.27" layer="25" ratio="10">&gt;NAME</text>
<text x="-2.159" y="-2.667" size="1.27" layer="27" ratio="10">&gt;VALUE</text>
<rectangle x1="-1.905" y1="-1.016" x2="-1.397" y2="1.016" layer="21"/>
<rectangle x1="2.286" y1="-0.254" x2="4.191" y2="0.254" layer="21"/>
<rectangle x1="-4.191" y1="-0.254" x2="-2.286" y2="0.254" layer="21"/>
</package>
</packages>
<packages3d>
<package3d name="DO35-10" urn="urn:adsk.eagle:package:43344/2" type="model" library_version="3">
<description>DIODE
diameter 2 mm, horizontal, grid 10.16 mm</description>
<packageinstances>
<packageinstance name="DO35-10"/>
</packageinstances>
</package3d>
</packages3d>
</library>
<library name="Encoders" urn="urn:adsk.eagle:library:14555662">
<description>&lt;h3&gt; PCBLayout.com - Frequently Used &lt;i&gt;Encoders&lt;/i&gt;&lt;/h3&gt;

Visit us at &lt;a href="http://www.PCBLayout.com"&gt;PCBLayout.com&lt;/a&gt; for quick and hassle-free PCB Layout/Manufacturing ordering experience.
&lt;BR&gt;
&lt;BR&gt;
This library has been generated by our experienced pcb layout engineers using current IPC and/or industry standards. We &lt;b&gt;believe&lt;/b&gt; the content to be accurate, complete and current. But, this content is provided as a courtesy and &lt;u&gt;user assumes all risk and responsiblity of it's usage&lt;/u&gt;.
&lt;BR&gt;
&lt;BR&gt;
Feel free to contact us at &lt;a href="mailto:Support@PCBLayout.com"&gt;Support@PCBLayout.com&lt;/a&gt; if you have any questions/concerns regarding any of our content or services.</description>
<packages>
<package name="PEC11R-4215K-S0024" urn="urn:adsk.eagle:footprint:14522085/2" library_version="1">
<pad name="C" x="0" y="-7.5" drill="1"/>
<pad name="A" x="-2.5" y="-7.5" drill="1"/>
<pad name="B" x="2.55" y="-7.5" drill="1"/>
<pad name="1" x="-2.5" y="7" drill="1"/>
<pad name="2" x="2.5" y="7" drill="1"/>
<pad name="M1" x="-5.7" y="0" drill="1.8" shape="square"/>
<pad name="M2" x="5.7" y="0" drill="1.8" shape="square"/>
<wire x1="-6.25" y1="7" x2="-6.25" y2="-7.5" width="0.127" layer="51"/>
<wire x1="-6.25" y1="-7.5" x2="6.25" y2="-7.5" width="0.127" layer="51"/>
<wire x1="6.25" y1="-7.5" x2="6.25" y2="7" width="0.127" layer="51"/>
<wire x1="6.25" y1="7" x2="-6.25" y2="7" width="0.127" layer="51"/>
<wire x1="6.25" y1="-7.5" x2="6.25" y2="-1.647" width="0.127" layer="21"/>
<wire x1="6.25" y1="1.647" x2="6.25" y2="7" width="0.127" layer="21"/>
<wire x1="-6.25" y1="7" x2="-6.25" y2="1.647" width="0.127" layer="21"/>
<wire x1="-7.4" y1="8.028" x2="7.4" y2="8.028" width="0.05" layer="39"/>
<wire x1="7.4" y1="8.028" x2="7.4" y2="-8.5" width="0.05" layer="39"/>
<wire x1="7.4" y1="-8.5" x2="-7.4" y2="-8.5" width="0.05" layer="39"/>
<wire x1="-7.4" y1="-8.5" x2="-7.4" y2="8.028" width="0.05" layer="39"/>
<wire x1="-6.25" y1="-7.5" x2="-6.25" y2="-1.647" width="0.127" layer="21"/>
<wire x1="-6.25" y1="7" x2="-3.5" y2="7" width="0.127" layer="21"/>
<wire x1="-1.5" y1="7" x2="1.5" y2="7" width="0.127" layer="21"/>
<wire x1="3.5" y1="7" x2="6.25" y2="7" width="0.127" layer="21"/>
<wire x1="4.8" y1="1.3" x2="4.8" y2="-1.3" width="0.01" layer="46"/>
<wire x1="4.8" y1="-1.3" x2="6.6" y2="-1.3" width="0.01" layer="46"/>
<wire x1="6.6" y1="-1.3" x2="6.6" y2="1.3" width="0.01" layer="46"/>
<wire x1="6.6" y1="1.3" x2="4.8" y2="1.3" width="0.01" layer="46"/>
<wire x1="-6.6" y1="1.3" x2="-6.6" y2="-1.3" width="0.01" layer="46"/>
<wire x1="-6.6" y1="-1.3" x2="-4.8" y2="-1.3" width="0.01" layer="46"/>
<wire x1="-4.8" y1="-1.3" x2="-4.8" y2="1.3" width="0.01" layer="46"/>
<wire x1="-4.8" y1="1.3" x2="-6.6" y2="1.3" width="0.01" layer="46"/>
<wire x1="-6.25" y1="-7.5" x2="-3.5" y2="-7.5" width="0.127" layer="21"/>
<wire x1="3.5" y1="-7.5" x2="6.25" y2="-7.5" width="0.127" layer="21"/>
<text x="-7.25" y="8.31" size="1.27" layer="25">&gt;NAME</text>
<text x="-8" y="-10.774" size="1.27" layer="27">&gt;VALUE</text>
<circle x="-2.5" y="-9" radius="0.2" width="0.4" layer="21"/>
</package>
</packages>
<packages3d>
<package3d name="PEC11R-4215K-S0024" urn="urn:adsk.eagle:package:14522112/4" type="model" library_version="1">
<packageinstances>
<packageinstance name="PEC11R-4215K-S0024"/>
</packageinstances>
</package3d>
</packages3d>
</library>
<library name="atmel" urn="urn:adsk.eagle:library:105">
<description>&lt;b&gt;AVR Devices&lt;/b&gt;&lt;p&gt;
Configurable logic, microcontrollers, nonvolatile memories&lt;p&gt;
Based on the following sources:&lt;p&gt;
&lt;ul&gt;
&lt;li&gt;www.atmel.com
&lt;li&gt;CD-ROM : Configurable Logic Microcontroller Nonvolatile Memory
&lt;li&gt;CadSoft download site, www.cadsoft.de or www.cadsoftusa.com , file at90smcu_v400.zip
&lt;li&gt;avr.lbr
&lt;/ul&gt;
&lt;author&gt;Revised by librarian@cadsoft.de&lt;/author&gt;</description>
<packages>
<package name="SO20L" urn="urn:adsk.eagle:footprint:4169/1" library_version="2">
<description>&lt;B&gt;Small Outline Package&lt;/B&gt; SOIC 0.300"</description>
<wire x1="-5.639" y1="-4.064" x2="6.909" y2="-4.064" width="0.1524" layer="21"/>
<wire x1="6.909" y1="-4.064" x2="6.909" y2="3.277" width="0.1524" layer="21"/>
<wire x1="6.909" y1="3.277" x2="-5.639" y2="3.277" width="0.1524" layer="21"/>
<wire x1="-5.639" y1="3.277" x2="-5.639" y2="-4.064" width="0.1524" layer="21"/>
<circle x="-4.7498" y="-3.1496" radius="0.5334" width="0.1524" layer="21"/>
<smd name="1" x="-5.08" y="-5.1308" dx="0.762" dy="1.143" layer="1"/>
<smd name="2" x="-3.81" y="-5.1308" dx="0.762" dy="1.143" layer="1"/>
<smd name="3" x="-2.54" y="-5.1308" dx="0.762" dy="1.143" layer="1"/>
<smd name="4" x="-1.27" y="-5.1308" dx="0.762" dy="1.143" layer="1"/>
<smd name="5" x="0" y="-5.1308" dx="0.762" dy="1.143" layer="1"/>
<smd name="6" x="1.27" y="-5.1308" dx="0.762" dy="1.143" layer="1"/>
<smd name="7" x="2.54" y="-5.1308" dx="0.762" dy="1.143" layer="1"/>
<smd name="8" x="3.81" y="-5.1308" dx="0.762" dy="1.143" layer="1"/>
<smd name="9" x="5.08" y="-5.1308" dx="0.762" dy="1.143" layer="1"/>
<smd name="10" x="6.35" y="-5.1308" dx="0.762" dy="1.143" layer="1"/>
<smd name="12" x="5.08" y="4.3942" dx="0.762" dy="1.143" layer="1"/>
<smd name="11" x="6.35" y="4.3688" dx="0.762" dy="1.143" layer="1"/>
<smd name="13" x="3.81" y="4.3942" dx="0.762" dy="1.143" layer="1"/>
<smd name="14" x="2.54" y="4.3942" dx="0.762" dy="1.143" layer="1"/>
<smd name="15" x="1.27" y="4.3942" dx="0.762" dy="1.143" layer="1"/>
<smd name="16" x="0" y="4.3942" dx="0.762" dy="1.143" layer="1"/>
<smd name="17" x="-1.27" y="4.3942" dx="0.762" dy="1.143" layer="1"/>
<smd name="18" x="-2.54" y="4.3942" dx="0.762" dy="1.143" layer="1"/>
<smd name="19" x="-3.81" y="4.3942" dx="0.762" dy="1.143" layer="1"/>
<smd name="20" x="-5.08" y="4.3942" dx="0.762" dy="1.143" layer="1"/>
<text x="-6.0706" y="-3.81" size="1.778" layer="25" ratio="10" rot="R90">&gt;NAME</text>
<text x="-4.445" y="-1.5494" size="1.778" layer="27" ratio="10">&gt;VALUE</text>
<rectangle x1="6.1468" y1="3.3274" x2="6.5532" y2="4.6482" layer="51"/>
<rectangle x1="4.8768" y1="3.3274" x2="5.2832" y2="4.6482" layer="51"/>
<rectangle x1="3.6068" y1="3.3274" x2="4.0132" y2="4.6482" layer="51"/>
<rectangle x1="2.3368" y1="3.3274" x2="2.7432" y2="4.6482" layer="51"/>
<rectangle x1="1.0668" y1="3.3274" x2="1.4732" y2="4.6482" layer="51"/>
<rectangle x1="-0.2032" y1="3.3274" x2="0.2032" y2="4.6482" layer="51"/>
<rectangle x1="-1.4732" y1="3.3274" x2="-1.0668" y2="4.6482" layer="51"/>
<rectangle x1="-2.7432" y1="3.3274" x2="-2.3368" y2="4.6482" layer="51"/>
<rectangle x1="-4.0132" y1="3.3274" x2="-3.6068" y2="4.6482" layer="51"/>
<rectangle x1="-5.2832" y1="3.3274" x2="-4.8768" y2="4.6482" layer="51"/>
<rectangle x1="6.1468" y1="-5.4356" x2="6.5532" y2="-4.1148" layer="51"/>
<rectangle x1="4.8768" y1="-5.4356" x2="5.2832" y2="-4.1148" layer="51"/>
<rectangle x1="3.6068" y1="-5.4356" x2="4.0132" y2="-4.1148" layer="51"/>
<rectangle x1="2.3368" y1="-5.4356" x2="2.7432" y2="-4.1148" layer="51"/>
<rectangle x1="1.0668" y1="-5.4356" x2="1.4732" y2="-4.1148" layer="51"/>
<rectangle x1="-0.2032" y1="-5.4356" x2="0.2032" y2="-4.1148" layer="51"/>
<rectangle x1="-1.4732" y1="-5.4356" x2="-1.0668" y2="-4.1148" layer="51"/>
<rectangle x1="-2.7432" y1="-5.4356" x2="-2.3368" y2="-4.1148" layer="51"/>
<rectangle x1="-4.0132" y1="-5.4356" x2="-3.6068" y2="-4.1148" layer="51"/>
<rectangle x1="-5.2832" y1="-5.4356" x2="-4.8768" y2="-4.1148" layer="51"/>
</package>
</packages>
<packages3d>
<package3d name="SO20L" urn="urn:adsk.eagle:package:4321/1" type="box" library_version="2">
<description>Small Outline Package SOIC 0.300"</description>
<packageinstances>
<packageinstance name="SO20L"/>
</packageinstances>
</package3d>
</packages3d>
</library>
<library name="Crystals_Oscillators" urn="urn:adsk.eagle:library:17769189">
<description>&lt;h3&gt; PCBLayout.com - Frequently Used &lt;i&gt;Crystals/Oscillators&lt;/i&gt;&lt;/h3&gt;

Visit us at &lt;a href="http://www.PCBLayout.com"&gt;PCBLayout.com&lt;/a&gt; for quick and hassle-free PCB Layout/Manufacturing ordering experience.
&lt;BR&gt;
&lt;BR&gt;
This library has been generated by our experienced pcb layout engineers using current IPC and/or industry standards. We &lt;b&gt;believe&lt;/b&gt; the content to be accurate, complete and current. But, this content is provided as a courtesy and &lt;u&gt;user assumes all risk and responsiblity of it's usage&lt;/u&gt;.
&lt;BR&gt;
&lt;BR&gt;
Feel free to contact us at &lt;a href="mailto:Support@PCBLayout.com"&gt;Support@PCBLayout.com&lt;/a&gt; if you have any questions/concerns regarding any of our content or services.</description>
<packages>
<package name="XTAL_HC49" urn="urn:adsk.eagle:footprint:10899568/1" library_version="2">
<description>Crystal, HC-49; 4.88 mm C X 0.45 mm W 11.05 mm L X 4.65 mm T X 3.50 mm H body&lt;p&gt;&lt;i&gt;PCB Libraries Packages&lt;/i&gt;</description>
<pad name="1" x="-2.44" y="0" drill="0.65" diameter="1.05" first="yes"/>
<pad name="2" x="2.44" y="0" drill="0.65" diameter="1.05"/>
<circle x="-2.44" y="0" radius="0.225" width="0.025" layer="51"/>
<circle x="2.44" y="0" radius="0.225" width="0.025" layer="51"/>
<circle x="0" y="0" radius="0.25" width="0.05" layer="39"/>
<wire x1="0.35" y1="0" x2="-0.35" y2="0" width="0.05" layer="39"/>
<wire x1="0" y1="0.35" x2="0" y2="-0.35" width="0.05" layer="39"/>
<wire x1="-3.2" y1="2.325" x2="3.2" y2="2.325" width="0.025" layer="51"/>
<wire x1="3.2" y1="2.325" x2="3.2" y2="-2.325" width="0.025" layer="51" curve="-180"/>
<wire x1="3.2" y1="-2.325" x2="-3.2" y2="-2.325" width="0.025" layer="51"/>
<wire x1="-3.2" y1="-2.325" x2="-3.2" y2="2.325" width="0.025" layer="51" curve="-180"/>
<wire x1="-3.2" y1="2.58" x2="3.2" y2="2.58" width="0.05" layer="39"/>
<wire x1="3.2" y1="2.58" x2="3.2" y2="-2.58" width="0.05" layer="39" curve="-180"/>
<wire x1="3.2" y1="-2.58" x2="-3.2" y2="-2.58" width="0.05" layer="39"/>
<wire x1="-3.2" y1="-2.58" x2="-3.2" y2="2.58" width="0.05" layer="39" curve="-180"/>
<wire x1="-3.2" y1="2.33" x2="3.2" y2="2.33" width="0.12" layer="51"/>
<wire x1="3.2" y1="2.33" x2="3.2" y2="-2.33" width="0.12" layer="51" curve="-180"/>
<wire x1="3.2" y1="-2.33" x2="-3.2" y2="-2.33" width="0.12" layer="51"/>
<wire x1="-3.2" y1="-2.33" x2="-3.2" y2="2.33" width="0.12" layer="51" curve="-180"/>
<wire x1="-3.2" y1="2.33" x2="3.2" y2="2.33" width="0.12" layer="21"/>
<wire x1="3.2" y1="2.33" x2="3.2" y2="-2.33" width="0.12" layer="21" curve="-180"/>
<wire x1="3.2" y1="-2.33" x2="-3.2" y2="-2.33" width="0.12" layer="21"/>
<wire x1="-3.2" y1="-2.33" x2="-3.2" y2="2.33" width="0.12" layer="21" curve="-180"/>
<text x="-5.08" y="-5.08" size="1.2" layer="51" ratio="10">&gt;VALUE</text>
<text x="-5.08" y="3.81" size="1.2" layer="25" ratio="10">&gt;NAME</text>
</package>
</packages>
<packages3d>
<package3d name="XTAL_HC49" urn="urn:adsk.eagle:package:10899591/2" type="model" library_version="2">
<description>Crystal, HC-49; 4.88 mm C X 0.45 mm W 11.05 mm L X 4.65 mm T X 3.50 mm H body&lt;p&gt;&lt;i&gt;PCB Libraries Packages&lt;/i&gt;</description>
<packageinstances>
<packageinstance name="XTAL_HC49"/>
</packageinstances>
</package3d>
</packages3d>
</library>
<library name="con-berg" urn="urn:adsk.eagle:library:130">
<description>&lt;b&gt;Berg Connectors&lt;/b&gt;&lt;p&gt;
Based on  the following source:
&lt;ul&gt;
&lt;li&gt;http://catalog.fciconnect.com
&lt;/ul&gt;
&lt;author&gt;Created by librarian@cadsoft.de&lt;/author&gt;</description>
<packages>
<package name="PN61729-S" urn="urn:adsk.eagle:footprint:6144/1" library_version="1">
<description>&lt;b&gt;USB connector&lt;/b&gt; with shield&lt;p&gt;</description>
<wire x1="-5.9" y1="5.6" x2="-5.9" y2="-10.15" width="0.254" layer="51"/>
<wire x1="-5.9" y1="-10.15" x2="5.9" y2="-10.15" width="0.254" layer="21"/>
<wire x1="5.9" y1="-10.15" x2="5.9" y2="5.6" width="0.254" layer="51"/>
<wire x1="5.9" y1="5.6" x2="-5.9" y2="5.6" width="0.254" layer="21"/>
<wire x1="-2.46" y1="-0.27" x2="-2.46" y2="0.73" width="0.0508" layer="21" curve="180"/>
<wire x1="-2.46" y1="-1.27" x2="-2.46" y2="-0.27" width="0.0508" layer="21" curve="180"/>
<wire x1="3.665" y1="0.23" x2="3.665" y2="-0.77" width="0.0508" layer="21" curve="180"/>
<wire x1="3.415" y1="0.73" x2="3.415" y2="-1.27" width="0.0508" layer="21" curve="180"/>
<wire x1="3.665" y1="0.23" x2="4.165" y2="0.23" width="0.0508" layer="21" curve="-15.189287"/>
<wire x1="3.415" y1="0.73" x2="4.175" y2="0.675" width="0.0508" layer="21" curve="-12.057134"/>
<wire x1="3.415" y1="-1.27" x2="4.165" y2="-1.145" width="0.0508" layer="21" curve="18.422836"/>
<wire x1="1.665" y1="-0.52" x2="1.665" y2="0.73" width="0.0508" layer="21" curve="180"/>
<wire x1="1.29" y1="-0.145" x2="1.29" y2="0.23" width="0.0508" layer="21" curve="180"/>
<wire x1="-3.835" y1="0.73" x2="-3.835" y2="-1.27" width="0.0508" layer="21"/>
<wire x1="-3.835" y1="-1.27" x2="-3.21" y2="-1.27" width="0.0508" layer="21"/>
<wire x1="-3.21" y1="-1.27" x2="-3.21" y2="-0.27" width="0.0508" layer="21"/>
<wire x1="-3.21" y1="-0.27" x2="-3.21" y2="0.73" width="0.0508" layer="21"/>
<wire x1="-3.21" y1="0.73" x2="-3.835" y2="0.73" width="0.0508" layer="21"/>
<wire x1="-3.21" y1="0.73" x2="-2.46" y2="0.23" width="0.0508" layer="21"/>
<wire x1="-2.46" y1="0.23" x2="-3.21" y2="-0.27" width="0.0508" layer="21"/>
<wire x1="-3.21" y1="-0.27" x2="-2.46" y2="-0.77" width="0.0508" layer="21"/>
<wire x1="-2.46" y1="-0.77" x2="-3.21" y2="-1.27" width="0.0508" layer="21"/>
<wire x1="-2.46" y1="-1.27" x2="-3.21" y2="-1.27" width="0.0508" layer="21"/>
<wire x1="-2.46" y1="0.73" x2="-3.21" y2="0.73" width="0.0508" layer="21"/>
<wire x1="-1.71" y1="0.73" x2="-1.71" y2="-1.27" width="0.0508" layer="21"/>
<wire x1="-1.71" y1="-1.27" x2="0.04" y2="-1.27" width="0.0508" layer="21"/>
<wire x1="0.04" y1="-1.27" x2="0.04" y2="-0.77" width="0.0508" layer="21"/>
<wire x1="0.04" y1="-0.77" x2="-1.085" y2="-0.77" width="0.0508" layer="21"/>
<wire x1="-1.085" y1="-0.77" x2="-1.085" y2="-0.52" width="0.0508" layer="21"/>
<wire x1="-1.085" y1="-0.52" x2="0.04" y2="-0.52" width="0.0508" layer="21"/>
<wire x1="0.04" y1="-0.52" x2="0.04" y2="-0.02" width="0.0508" layer="21"/>
<wire x1="0.04" y1="-0.02" x2="-1.085" y2="-0.02" width="0.0508" layer="21"/>
<wire x1="-1.085" y1="-0.02" x2="-1.085" y2="0.23" width="0.0508" layer="21"/>
<wire x1="-1.085" y1="0.23" x2="0.04" y2="0.23" width="0.0508" layer="21"/>
<wire x1="0.04" y1="0.23" x2="0.04" y2="0.73" width="0.0508" layer="21"/>
<wire x1="0.04" y1="0.73" x2="-1.71" y2="0.73" width="0.0508" layer="21"/>
<wire x1="0.29" y1="0.73" x2="0.29" y2="-1.27" width="0.0508" layer="21"/>
<wire x1="0.29" y1="-1.27" x2="0.915" y2="-1.27" width="0.0508" layer="21"/>
<wire x1="0.915" y1="-1.27" x2="0.915" y2="-0.52" width="0.0508" layer="21"/>
<wire x1="0.915" y1="-0.52" x2="1.415" y2="-1.27" width="0.0508" layer="21"/>
<wire x1="1.415" y1="-1.27" x2="2.165" y2="-1.27" width="0.0508" layer="21"/>
<wire x1="2.165" y1="-1.27" x2="1.665" y2="-0.52" width="0.0508" layer="21"/>
<wire x1="0.915" y1="0.23" x2="0.915" y2="-0.145" width="0.0508" layer="21"/>
<wire x1="0.29" y1="0.73" x2="1.665" y2="0.73" width="0.0508" layer="21"/>
<wire x1="0.915" y1="0.23" x2="1.29" y2="0.23" width="0.0508" layer="21"/>
<wire x1="0.915" y1="-0.145" x2="1.29" y2="-0.145" width="0.0508" layer="21"/>
<wire x1="3.665" y1="-0.27" x2="4.165" y2="-0.27" width="0.0508" layer="21"/>
<wire x1="3.665" y1="-0.27" x2="3.665" y2="-0.77" width="0.0508" layer="21"/>
<wire x1="4.16" y1="0.23" x2="4.16" y2="0.675" width="0.0508" layer="21"/>
<wire x1="4.165" y1="-0.27" x2="4.165" y2="-1.145" width="0.0508" layer="21"/>
<wire x1="-5.9" y1="-2.02" x2="-5.9" y2="-10.15" width="0.254" layer="21"/>
<wire x1="5.9" y1="1.915" x2="5.9" y2="5.6" width="0.254" layer="21"/>
<wire x1="-5.9" y1="5.6" x2="-5.9" y2="1.915" width="0.254" layer="21"/>
<wire x1="5.9" y1="-10.15" x2="5.9" y2="-2.02" width="0.254" layer="21"/>
<pad name="1" x="1.25" y="4.71" drill="0.95" shape="octagon"/>
<pad name="2" x="-1.25" y="4.71" drill="0.95" shape="octagon"/>
<pad name="3" x="-1.25" y="2.71" drill="0.95" shape="octagon"/>
<pad name="4" x="1.25" y="2.71" drill="0.95" shape="octagon"/>
<pad name="S1" x="-6.02" y="0" drill="2.3" diameter="2.9"/>
<pad name="S2" x="6.02" y="0" drill="2.3" diameter="2.9"/>
<text x="-6.35" y="6.35" size="1.27" layer="25">&gt;NAME</text>
<text x="7.62" y="-8.89" size="1.27" layer="27" rot="R90">&gt;VALUE</text>
<text x="-3.81" y="-2.04" size="0.4064" layer="21">E L E C T R O N I C S</text>
</package>
</packages>
<packages3d>
<package3d name="PN61729-S" urn="urn:adsk.eagle:package:6149/1" type="box" library_version="1">
<description>USB connector with shield</description>
<packageinstances>
<packageinstance name="PN61729-S"/>
</packageinstances>
</package3d>
</packages3d>
</library>
<library name="switch-misc" urn="urn:adsk.eagle:library:376">
<description>&lt;b&gt;Switches&lt;/b&gt;&lt;p&gt;
Marquardt, RAFI, ITT, and others&lt;p&gt;
&lt;author&gt;Created by librarian@cadsoft.de&lt;/author&gt;</description>
<packages>
<package name="RACON12" urn="urn:adsk.eagle:footprint:27412/1" library_version="1">
<description>&lt;b&gt;ITT SWITCH&lt;/b&gt;</description>
<wire x1="-1.905" y1="1.905" x2="1.905" y2="1.905" width="0.1524" layer="21"/>
<wire x1="1.905" y1="-1.905" x2="1.905" y2="1.905" width="0.1524" layer="21"/>
<wire x1="1.905" y1="-1.905" x2="-1.905" y2="-1.905" width="0.1524" layer="21"/>
<wire x1="-1.905" y1="1.905" x2="-1.905" y2="-1.905" width="0.1524" layer="21"/>
<wire x1="-1.651" y1="1.651" x2="1.651" y2="1.651" width="0.0508" layer="21"/>
<wire x1="1.651" y1="-1.651" x2="1.651" y2="1.651" width="0.0508" layer="21"/>
<wire x1="1.651" y1="-1.651" x2="-1.651" y2="-1.651" width="0.0508" layer="21"/>
<wire x1="-1.651" y1="1.651" x2="-1.651" y2="-1.651" width="0.0508" layer="21"/>
<wire x1="-1.016" y1="6.096" x2="-1.016" y2="6.477" width="0.1524" layer="21"/>
<wire x1="-1.016" y1="6.096" x2="1.016" y2="6.096" width="0.1524" layer="21"/>
<wire x1="-1.016" y1="6.477" x2="1.016" y2="6.477" width="0.1524" layer="21"/>
<wire x1="1.016" y1="6.477" x2="1.016" y2="6.096" width="0.1524" layer="21"/>
<wire x1="6.096" y1="5.08" x2="5.08" y2="6.096" width="0.1524" layer="21"/>
<wire x1="5.08" y1="6.096" x2="1.778" y2="6.096" width="0.1524" layer="21"/>
<wire x1="6.096" y1="5.08" x2="6.096" y2="3.81" width="0.1524" layer="21"/>
<wire x1="6.096" y1="1.143" x2="6.096" y2="3.81" width="0.1524" layer="51"/>
<wire x1="6.096" y1="1.143" x2="6.096" y2="-1.143" width="0.1524" layer="21"/>
<wire x1="6.096" y1="-3.81" x2="6.096" y2="-1.143" width="0.1524" layer="51"/>
<wire x1="5.08" y1="-6.096" x2="6.096" y2="-5.08" width="0.1524" layer="21"/>
<wire x1="6.096" y1="-5.08" x2="6.096" y2="-3.81" width="0.1524" layer="21"/>
<wire x1="-6.096" y1="1.143" x2="-6.096" y2="3.81" width="0.1524" layer="51"/>
<wire x1="-6.096" y1="1.143" x2="-6.096" y2="-1.143" width="0.1524" layer="21"/>
<wire x1="-6.096" y1="-3.81" x2="-6.096" y2="-1.143" width="0.1524" layer="51"/>
<wire x1="-6.096" y1="-3.81" x2="-6.096" y2="-5.08" width="0.1524" layer="21"/>
<wire x1="-6.096" y1="-5.08" x2="-5.08" y2="-6.096" width="0.1524" layer="21"/>
<wire x1="-5.08" y1="-6.096" x2="-1.778" y2="-6.096" width="0.1524" layer="21"/>
<wire x1="-5.08" y1="6.096" x2="-1.778" y2="6.096" width="0.1524" layer="21"/>
<wire x1="-5.08" y1="6.096" x2="-6.096" y2="5.08" width="0.1524" layer="21"/>
<wire x1="-6.096" y1="5.08" x2="-6.096" y2="3.81" width="0.1524" layer="21"/>
<wire x1="-1.016" y1="-6.477" x2="1.016" y2="-6.477" width="0.1524" layer="21"/>
<wire x1="-1.016" y1="-6.477" x2="-1.016" y2="-6.096" width="0.1524" layer="21"/>
<wire x1="1.016" y1="-6.096" x2="1.016" y2="-6.477" width="0.1524" layer="21"/>
<wire x1="5.08" y1="6.096" x2="4.826" y2="6.35" width="0.1524" layer="21"/>
<wire x1="4.826" y1="6.35" x2="1.778" y2="6.35" width="0.1524" layer="21"/>
<wire x1="1.778" y1="6.35" x2="1.778" y2="6.096" width="0.1524" layer="21"/>
<wire x1="1.778" y1="6.096" x2="1.016" y2="6.096" width="0.1524" layer="21"/>
<wire x1="-1.778" y1="6.35" x2="-1.778" y2="6.096" width="0.1524" layer="21"/>
<wire x1="-1.778" y1="6.096" x2="-1.016" y2="6.096" width="0.1524" layer="21"/>
<wire x1="-1.778" y1="6.35" x2="-4.826" y2="6.35" width="0.1524" layer="21"/>
<wire x1="-5.08" y1="6.096" x2="-4.826" y2="6.35" width="0.1524" layer="21"/>
<wire x1="-1.016" y1="-6.096" x2="1.016" y2="-6.096" width="0.1524" layer="21"/>
<wire x1="1.016" y1="-6.096" x2="1.778" y2="-6.096" width="0.1524" layer="21"/>
<wire x1="-1.778" y1="-6.096" x2="-1.778" y2="-6.35" width="0.1524" layer="21"/>
<wire x1="-1.778" y1="-6.096" x2="-1.016" y2="-6.096" width="0.1524" layer="21"/>
<wire x1="-1.778" y1="-6.35" x2="-4.826" y2="-6.35" width="0.1524" layer="21"/>
<wire x1="-4.826" y1="-6.35" x2="-5.08" y2="-6.096" width="0.1524" layer="21"/>
<wire x1="1.778" y1="-6.096" x2="1.778" y2="-6.35" width="0.1524" layer="21"/>
<wire x1="1.778" y1="-6.096" x2="5.08" y2="-6.096" width="0.1524" layer="21"/>
<wire x1="4.826" y1="-6.35" x2="1.778" y2="-6.35" width="0.1524" layer="21"/>
<wire x1="5.08" y1="-6.096" x2="4.826" y2="-6.35" width="0.1524" layer="21"/>
<wire x1="-5.08" y1="2.54" x2="-4.572" y2="2.54" width="0.1524" layer="51"/>
<wire x1="2.921" y1="2.54" x2="5.08" y2="2.54" width="0.1524" layer="51"/>
<wire x1="-5.08" y1="-2.54" x2="-4.572" y2="-2.54" width="0.1524" layer="51"/>
<wire x1="2.921" y1="-2.54" x2="5.08" y2="-2.54" width="0.1524" layer="51"/>
<wire x1="-4.572" y1="2.54" x2="-4.572" y2="0.762" width="0.1524" layer="51"/>
<wire x1="-4.572" y1="2.54" x2="-2.921" y2="2.54" width="0.1524" layer="51"/>
<wire x1="-4.572" y1="0.762" x2="-5.08" y2="-0.762" width="0.1524" layer="51"/>
<wire x1="-4.572" y1="-0.762" x2="-4.572" y2="-2.54" width="0.1524" layer="51"/>
<wire x1="-4.572" y1="-2.54" x2="-2.921" y2="-2.54" width="0.1524" layer="51"/>
<circle x="0" y="0" radius="3.556" width="0.1524" layer="21"/>
<circle x="0" y="0" radius="1.016" width="0.0508" layer="21"/>
<circle x="0" y="0" radius="0.762" width="0.0508" layer="21"/>
<circle x="-4.572" y="2.54" radius="0.127" width="0.1524" layer="51"/>
<circle x="-4.572" y="-2.54" radius="0.127" width="0.1524" layer="51"/>
<pad name="3" x="-6.2484" y="-2.4892" drill="1.1938" shape="long"/>
<pad name="4" x="6.2484" y="-2.4892" drill="1.1938" shape="long"/>
<pad name="1" x="-6.2484" y="2.4892" drill="1.1938" shape="long"/>
<pad name="2" x="6.2484" y="2.4892" drill="1.1938" shape="long"/>
<text x="-5.08" y="6.858" size="1.27" layer="25" ratio="10">&gt;NAME</text>
<text x="-3.175" y="-5.334" size="1.27" layer="27" ratio="10">&gt;VALUE</text>
<text x="-5.461" y="3.81" size="1.27" layer="21" ratio="10">1</text>
<text x="4.191" y="3.81" size="1.27" layer="21" ratio="10">2</text>
<text x="-5.461" y="-5.08" size="1.27" layer="21" ratio="10">3</text>
<text x="4.318" y="-5.08" size="1.27" layer="21" ratio="10">4</text>
<rectangle x1="6.096" y1="-2.921" x2="6.604" y2="-2.032" layer="51"/>
<rectangle x1="6.096" y1="2.032" x2="6.604" y2="2.921" layer="51"/>
<rectangle x1="-6.604" y1="2.032" x2="-6.096" y2="2.921" layer="51"/>
<rectangle x1="-6.604" y1="-2.921" x2="-6.096" y2="-2.032" layer="51"/>
<rectangle x1="2.286" y1="5.842" x2="4.445" y2="6.35" layer="21"/>
<rectangle x1="-4.445" y1="5.842" x2="-2.286" y2="6.35" layer="21"/>
<rectangle x1="2.286" y1="-6.35" x2="4.445" y2="-5.842" layer="21"/>
<rectangle x1="-4.445" y1="-6.35" x2="-2.286" y2="-5.842" layer="21"/>
</package>
</packages>
<packages3d>
<package3d name="RACON12" urn="urn:adsk.eagle:package:27445/1" type="box" library_version="1">
<description>ITT SWITCH</description>
<packageinstances>
<packageinstance name="RACON12"/>
</packageinstances>
</package3d>
</packages3d>
</library>
<library name="con-lsta" urn="urn:adsk.eagle:library:161">
<description>&lt;b&gt;Female Headers etc.&lt;/b&gt;&lt;p&gt;
Naming:&lt;p&gt;
FE = female&lt;p&gt;
# contacts - # rows&lt;p&gt;
W = angled&lt;p&gt;
&lt;author&gt;Created by librarian@cadsoft.de&lt;/author&gt;</description>
<packages>
<package name="FE05-2" urn="urn:adsk.eagle:footprint:8099/1" library_version="1">
<description>&lt;b&gt;FEMALE HEADER&lt;/b&gt;</description>
<wire x1="-5.715" y1="3.048" x2="5.715" y2="3.048" width="0.1524" layer="21"/>
<wire x1="6.35" y1="-2.413" x2="6.35" y2="2.413" width="0.1524" layer="21"/>
<wire x1="-6.35" y1="-2.413" x2="-6.35" y2="2.413" width="0.1524" layer="21"/>
<wire x1="-5.715" y1="-3.048" x2="5.715" y2="-3.048" width="0.1524" layer="21"/>
<wire x1="-6.35" y1="2.413" x2="-5.715" y2="3.048" width="0.1524" layer="21" curve="-90"/>
<wire x1="5.715" y1="3.048" x2="6.35" y2="2.413" width="0.1524" layer="21" curve="-90"/>
<wire x1="5.715" y1="-3.048" x2="6.35" y2="-2.413" width="0.1524" layer="21" curve="90"/>
<wire x1="-6.35" y1="-2.413" x2="-5.715" y2="-3.048" width="0.1524" layer="21" curve="90"/>
<circle x="-5.08" y="-1.27" radius="0.127" width="0.4064" layer="51"/>
<circle x="-5.08" y="1.27" radius="0.127" width="0.4064" layer="51"/>
<circle x="-2.54" y="-1.27" radius="0.127" width="0.4064" layer="51"/>
<circle x="-2.54" y="1.27" radius="0.127" width="0.4064" layer="51"/>
<circle x="0" y="-1.27" radius="0.127" width="0.4064" layer="51"/>
<circle x="0" y="1.27" radius="0.127" width="0.4064" layer="51"/>
<circle x="2.54" y="-1.27" radius="0.127" width="0.4064" layer="51"/>
<circle x="2.54" y="1.27" radius="0.127" width="0.4064" layer="51"/>
<circle x="5.08" y="-1.27" radius="0.127" width="0.4064" layer="51"/>
<circle x="5.08" y="1.27" radius="0.127" width="0.4064" layer="51"/>
<circle x="-5.08" y="-1.27" radius="0.889" width="0.1524" layer="51"/>
<circle x="-5.08" y="1.27" radius="0.889" width="0.1524" layer="51"/>
<circle x="-2.54" y="1.27" radius="0.889" width="0.1524" layer="51"/>
<circle x="0" y="1.27" radius="0.889" width="0.1524" layer="51"/>
<circle x="2.54" y="1.27" radius="0.889" width="0.1524" layer="51"/>
<circle x="5.08" y="1.27" radius="0.889" width="0.1524" layer="51"/>
<circle x="-2.54" y="-1.27" radius="0.889" width="0.1524" layer="51"/>
<circle x="0" y="-1.27" radius="0.889" width="0.1524" layer="51"/>
<circle x="2.54" y="-1.27" radius="0.889" width="0.1524" layer="51"/>
<circle x="5.08" y="-1.27" radius="0.889" width="0.1524" layer="51"/>
<pad name="1" x="-5.08" y="1.27" drill="0.9144"/>
<pad name="2" x="-5.08" y="-1.27" drill="0.9144" shape="octagon"/>
<pad name="3" x="-2.54" y="1.27" drill="0.9144" shape="octagon"/>
<pad name="4" x="-2.54" y="-1.27" drill="0.9144" shape="octagon"/>
<pad name="5" x="0" y="1.27" drill="0.9144" shape="octagon"/>
<pad name="6" x="0" y="-1.27" drill="0.9144" shape="octagon"/>
<pad name="7" x="2.54" y="1.27" drill="0.9144" shape="octagon"/>
<pad name="8" x="2.54" y="-1.27" drill="0.9144" shape="octagon"/>
<pad name="9" x="5.08" y="1.27" drill="0.9144" shape="octagon"/>
<pad name="10" x="5.08" y="-1.27" drill="0.9144" shape="octagon"/>
<text x="-2.54" y="3.429" size="1.27" layer="25" ratio="10">&gt;NAME</text>
<text x="-5.461" y="3.429" size="1.27" layer="21" ratio="10">1</text>
<text x="-6.35" y="-4.699" size="1.27" layer="27" ratio="10">&gt;VALUE</text>
<text x="4.191" y="-4.699" size="1.27" layer="21" ratio="10">10</text>
</package>
</packages>
<packages3d>
<package3d name="FE05-2" urn="urn:adsk.eagle:package:8170/1" type="box" library_version="1">
<description>FEMALE HEADER</description>
<packageinstances>
<packageinstance name="FE05-2"/>
</packageinstances>
</package3d>
</packages3d>
</library>
</libraries>
<attributes>
</attributes>
<variantdefs>
</variantdefs>
<classes>
<class number="0" name="default" width="0" drill="0">
</class>
</classes>
<designrules name="default *">
<description language="de">&lt;b&gt;EAGLE Design Rules&lt;/b&gt;
&lt;p&gt;
Die Standard-Design-Rules sind so gewählt, dass sie für 
die meisten Anwendungen passen. Sollte ihre Platine 
besondere Anforderungen haben, treffen Sie die erforderlichen
Einstellungen hier und speichern die Design Rules unter 
einem neuen Namen ab.</description>
<description language="en">&lt;b&gt;EAGLE Design Rules&lt;/b&gt;
&lt;p&gt;
The default Design Rules have been set to cover
a wide range of applications. Your particular design
may have different requirements, so please make the
necessary adjustments and save your customized
design rules under a new name.</description>
<param name="layerSetup" value="(1*16)"/>
<param name="mtCopper" value="0.035mm 0.035mm 0.035mm 0.035mm 0.035mm 0.035mm 0.035mm 0.035mm 0.035mm 0.035mm 0.035mm 0.035mm 0.035mm 0.035mm 0.035mm 0.035mm"/>
<param name="mtIsolate" value="1.5mm 0.15mm 0.2mm 0.15mm 0.2mm 0.15mm 0.2mm 0.15mm 0.2mm 0.15mm 0.2mm 0.15mm 0.2mm 0.15mm 0.2mm"/>
<param name="mdWireWire" value="6mil"/>
<param name="mdWirePad" value="8mil"/>
<param name="mdWireVia" value="8mil"/>
<param name="mdPadPad" value="8mil"/>
<param name="mdPadVia" value="8mil"/>
<param name="mdViaVia" value="8mil"/>
<param name="mdSmdPad" value="6mil"/>
<param name="mdSmdVia" value="6mil"/>
<param name="mdSmdSmd" value="6mil"/>
<param name="mdViaViaSameLayer" value="6mil"/>
<param name="mnLayersViaInSmd" value="2"/>
<param name="mdCopperDimension" value="40mil"/>
<param name="mdDrill" value="6mil"/>
<param name="mdSmdStop" value="0mil"/>
<param name="msWidth" value="6mil"/>
<param name="msDrill" value="0.35mm"/>
<param name="msMicroVia" value="9.99mm"/>
<param name="msBlindViaRatio" value="0.5"/>
<param name="rvPadTop" value="0.25"/>
<param name="rvPadInner" value="0.25"/>
<param name="rvPadBottom" value="0.25"/>
<param name="rvViaOuter" value="0.25"/>
<param name="rvViaInner" value="0.25"/>
<param name="rvMicroViaOuter" value="0.25"/>
<param name="rvMicroViaInner" value="0.25"/>
<param name="rlMinPadTop" value="15mil"/>
<param name="rlMaxPadTop" value="20mil"/>
<param name="rlMinPadInner" value="15mil"/>
<param name="rlMaxPadInner" value="20mil"/>
<param name="rlMinPadBottom" value="15mil"/>
<param name="rlMaxPadBottom" value="20mil"/>
<param name="rlMinViaOuter" value="20mil"/>
<param name="rlMaxViaOuter" value="20mil"/>
<param name="rlMinViaInner" value="20mil"/>
<param name="rlMaxViaInner" value="20mil"/>
<param name="rlMinMicroViaOuter" value="4mil"/>
<param name="rlMaxMicroViaOuter" value="20mil"/>
<param name="rlMinMicroViaInner" value="4mil"/>
<param name="rlMaxMicroViaInner" value="20mil"/>
<param name="psTop" value="2"/>
<param name="psBottom" value="2"/>
<param name="psFirst" value="0"/>
<param name="psElongationLong" value="100"/>
<param name="psElongationOffset" value="100"/>
<param name="mvStopFrame" value="1"/>
<param name="mvCreamFrame" value="0"/>
<param name="mlMinStopFrame" value="8mil"/>
<param name="mlMaxStopFrame" value="8mil"/>
<param name="mlMinCreamFrame" value="0mil"/>
<param name="mlMaxCreamFrame" value="0mil"/>
<param name="mlViaStopLimit" value="0mil"/>
<param name="srRoundness" value="0"/>
<param name="srMinRoundness" value="0mil"/>
<param name="srMaxRoundness" value="0mil"/>
<param name="slThermalIsolate" value="40mil"/>
<param name="slThermalsForVias" value="1"/>
<param name="dpMaxLengthDifference" value="10mm"/>
<param name="dpGapFactor" value="2.5"/>
<param name="checkAngle" value="0"/>
<param name="checkFont" value="1"/>
<param name="checkRestrict" value="1"/>
<param name="checkStop" value="0"/>
<param name="checkValues" value="0"/>
<param name="checkNames" value="1"/>
<param name="checkWireStubs" value="1"/>
<param name="checkPolygonWidth" value="0"/>
<param name="useDiameter" value="13"/>
<param name="maxErrors" value="50"/>
</designrules>
<autorouter>
<pass name="Default">
<param name="RoutingGrid" value="50mil"/>
<param name="AutoGrid" value="1"/>
<param name="Efforts" value="0"/>
<param name="TopRouterVariant" value="1"/>
<param name="tpViaShape" value="round"/>
<param name="PrefDir.1" value="a"/>
<param name="PrefDir.2" value="0"/>
<param name="PrefDir.3" value="0"/>
<param name="PrefDir.4" value="0"/>
<param name="PrefDir.5" value="0"/>
<param name="PrefDir.6" value="0"/>
<param name="PrefDir.7" value="0"/>
<param name="PrefDir.8" value="0"/>
<param name="PrefDir.9" value="0"/>
<param name="PrefDir.10" value="0"/>
<param name="PrefDir.11" value="0"/>
<param name="PrefDir.12" value="0"/>
<param name="PrefDir.13" value="0"/>
<param name="PrefDir.14" value="0"/>
<param name="PrefDir.15" value="0"/>
<param name="PrefDir.16" value="a"/>
<param name="cfVia" value="8"/>
<param name="cfNonPref" value="5"/>
<param name="cfChangeDir" value="2"/>
<param name="cfOrthStep" value="2"/>
<param name="cfDiagStep" value="3"/>
<param name="cfExtdStep" value="0"/>
<param name="cfBonusStep" value="1"/>
<param name="cfMalusStep" value="1"/>
<param name="cfPadImpact" value="4"/>
<param name="cfSmdImpact" value="4"/>
<param name="cfBusImpact" value="0"/>
<param name="cfHugging" value="3"/>
<param name="cfAvoid" value="4"/>
<param name="cfPolygon" value="10"/>
<param name="cfBase.1" value="0"/>
<param name="cfBase.2" value="1"/>
<param name="cfBase.3" value="1"/>
<param name="cfBase.4" value="1"/>
<param name="cfBase.5" value="1"/>
<param name="cfBase.6" value="1"/>
<param name="cfBase.7" value="1"/>
<param name="cfBase.8" value="1"/>
<param name="cfBase.9" value="1"/>
<param name="cfBase.10" value="1"/>
<param name="cfBase.11" value="1"/>
<param name="cfBase.12" value="1"/>
<param name="cfBase.13" value="1"/>
<param name="cfBase.14" value="1"/>
<param name="cfBase.15" value="1"/>
<param name="cfBase.16" value="0"/>
<param name="mnVias" value="20"/>
<param name="mnSegments" value="9999"/>
<param name="mnExtdSteps" value="9999"/>
<param name="mnRipupLevel" value="10"/>
<param name="mnRipupSteps" value="100"/>
<param name="mnRipupTotal" value="100"/>
</pass>
<pass name="Follow-me" refer="Default" active="yes">
</pass>
<pass name="Busses" refer="Default" active="yes">
<param name="cfNonPref" value="4"/>
<param name="cfBusImpact" value="4"/>
<param name="cfHugging" value="0"/>
<param name="mnVias" value="0"/>
</pass>
<pass name="Route" refer="Default" active="yes">
</pass>
<pass name="Optimize1" refer="Default" active="yes">
<param name="cfVia" value="99"/>
<param name="cfExtdStep" value="10"/>
<param name="cfHugging" value="1"/>
<param name="mnExtdSteps" value="1"/>
<param name="mnRipupLevel" value="0"/>
</pass>
<pass name="Optimize2" refer="Optimize1" active="yes">
<param name="cfNonPref" value="0"/>
<param name="cfChangeDir" value="6"/>
<param name="cfExtdStep" value="0"/>
<param name="cfBonusStep" value="2"/>
<param name="cfMalusStep" value="2"/>
<param name="cfPadImpact" value="2"/>
<param name="cfSmdImpact" value="2"/>
<param name="cfHugging" value="0"/>
</pass>
<pass name="Optimize3" refer="Optimize2" active="yes">
<param name="cfChangeDir" value="8"/>
<param name="cfPadImpact" value="0"/>
<param name="cfSmdImpact" value="0"/>
</pass>
<pass name="Optimize4" refer="Optimize3" active="yes">
<param name="cfChangeDir" value="25"/>
</pass>
</autorouter>
<elements>
<element name="C4" library="rcl" library_urn="urn:adsk.eagle:library:334" package="C1210K" package3d_urn="urn:adsk.eagle:package:23683/2" value="27n" x="43.18" y="27.94" rot="MR90">
<attribute name="SPICEPREFIX" value="C" x="43.18" y="27.94" size="1.778" layer="28" rot="MR90" display="off"/>
</element>
<element name="C5" library="rcl" library_urn="urn:adsk.eagle:library:334" package="C1210K" package3d_urn="urn:adsk.eagle:package:23683/2" value="27n" x="38.1" y="27.94" rot="MR90">
<attribute name="SPICEPREFIX" value="C" x="38.1" y="27.94" size="1.778" layer="28" rot="MR90" display="off"/>
</element>
<element name="C6*" library="rcl" library_urn="urn:adsk.eagle:library:334" package="C1210K" package3d_urn="urn:adsk.eagle:package:23683/2" value=".1" x="54.61" y="53.975" rot="MR90">
<attribute name="SPICEPREFIX" value="C" x="54.61" y="53.975" size="1.778" layer="28" rot="MR90" display="off"/>
</element>
<element name="C7*" library="rcl" library_urn="urn:adsk.eagle:library:334" package="C1210K" package3d_urn="urn:adsk.eagle:package:23683/2" value=".1" x="60.325" y="53.975" rot="MR90">
<attribute name="SPICEPREFIX" value="C" x="60.325" y="53.975" size="1.778" layer="28" rot="MR90" display="off"/>
</element>
<element name="C8" library="rcl" library_urn="urn:adsk.eagle:library:334" package="C1210K" package3d_urn="urn:adsk.eagle:package:23683/2" value="0.1" x="38.735" y="60.96" rot="MR0">
<attribute name="SPICEPREFIX" value="C" x="38.735" y="60.96" size="1.778" layer="28" rot="MR0" display="off"/>
</element>
<element name="D1" library="diode" library_urn="urn:adsk.eagle:library:210" package="DO35-10" package3d_urn="urn:adsk.eagle:package:43344/2" value="1N4148" x="19.685" y="32.385" rot="R180"/>
<element name="D2" library="diode" library_urn="urn:adsk.eagle:library:210" package="DO35-10" package3d_urn="urn:adsk.eagle:package:43344/2" value="1N4148" x="30.48" y="42.545" rot="R270"/>
<element name="EN1" library="Encoders" library_urn="urn:adsk.eagle:library:14555662" package="PEC11R-4215K-S0024" package3d_urn="urn:adsk.eagle:package:14522112/4" value="" x="71.12" y="41.91" rot="R270">
<attribute name="CREATED_BY" value="PCBLayout.com" x="71.12" y="41.91" size="1.778" layer="27" rot="R270" display="off"/>
<attribute name="DIGIKEY_PARTNO" value="PEC11R-4215K-S0024-ND" x="71.12" y="41.91" size="1.778" layer="27" rot="R270" display="off"/>
<attribute name="MANUFACTURER" value="Bourns Inc." x="71.12" y="41.91" size="1.778" layer="27" rot="R270" display="off"/>
<attribute name="MPN" value="PEC11R-4215K-S0024" x="71.12" y="41.91" size="1.778" layer="27" rot="R270" display="off"/>
</element>
<element name="IC1" library="atmel" library_urn="urn:adsk.eagle:library:105" package="SO20L" package3d_urn="urn:adsk.eagle:package:4321/1" value="AT90S2313S" x="39.37" y="41.91" rot="MR0">
<attribute name="MF" value="" x="39.37" y="41.91" size="1.778" layer="28" rot="MR0" display="off"/>
<attribute name="MPN" value="" x="39.37" y="41.91" size="1.778" layer="28" rot="MR0" display="off"/>
<attribute name="OC_FARNELL" value="unknown" x="39.37" y="41.91" size="1.778" layer="28" rot="MR0" display="off"/>
<attribute name="OC_NEWARK" value="unknown" x="39.37" y="41.91" size="1.778" layer="28" rot="MR0" display="off"/>
</element>
<element name="R1" library="rcl" library_urn="urn:adsk.eagle:library:334" package="R1210W" package3d_urn="urn:adsk.eagle:package:23541/1" value="" x="46.99" y="41.275" rot="MR270">
<attribute name="SPICEPREFIX" value="R" x="46.99" y="41.275" size="1.778" layer="28" rot="MR270" display="off"/>
</element>
<element name="R2*" library="rcl" library_urn="urn:adsk.eagle:library:334" package="R1210W" package3d_urn="urn:adsk.eagle:package:23541/1" value="7.5K" x="54.61" y="47.625" rot="MR270">
<attribute name="SPICEPREFIX" value="R" x="54.61" y="47.625" size="1.778" layer="28" rot="MR270" display="off"/>
</element>
<element name="R3*" library="rcl" library_urn="urn:adsk.eagle:library:334" package="R1210W" package3d_urn="urn:adsk.eagle:package:23541/1" value="7.5K" x="60.325" y="47.625" rot="MR270">
<attribute name="SPICEPREFIX" value="R" x="60.325" y="47.625" size="1.778" layer="28" rot="MR270" display="off"/>
</element>
<element name="R4" library="rcl" library_urn="urn:adsk.eagle:library:334" package="R1210W" package3d_urn="urn:adsk.eagle:package:23541/1" value="75" x="11.43" y="47.625" rot="MR0">
<attribute name="SPICEPREFIX" value="R" x="11.43" y="47.625" size="1.778" layer="28" rot="MR0" display="off"/>
</element>
<element name="R5" library="rcl" library_urn="urn:adsk.eagle:library:334" package="R1210W" package3d_urn="urn:adsk.eagle:package:23541/1" value="75" x="11.43" y="53.975" rot="MR0">
<attribute name="SPICEPREFIX" value="R" x="11.43" y="53.975" size="1.778" layer="28" rot="MR0" display="off"/>
</element>
<element name="R6" library="rcl" library_urn="urn:adsk.eagle:library:334" package="R1210W" package3d_urn="urn:adsk.eagle:package:23541/1" value="1.5K" x="11.43" y="50.8" rot="MR0">
<attribute name="SPICEPREFIX" value="R" x="11.43" y="50.8" size="1.778" layer="28" rot="MR0" display="off"/>
</element>
<element name="Q1" library="Crystals_Oscillators" library_urn="urn:adsk.eagle:library:17769189" package="XTAL_HC49" package3d_urn="urn:adsk.eagle:package:10899591/2" value="12MHz" x="40.64" y="31.75" rot="R180">
<attribute name="CREATED_BY" value="PCBLayout.com" x="40.64" y="31.75" size="1.778" layer="27" rot="R180" display="off"/>
<attribute name="MANUFACTURER" value="Xinhunjing " x="40.64" y="31.75" size="1.778" layer="27" rot="R180" display="off"/>
<attribute name="MPN" value="49S/18PF" x="40.64" y="31.75" size="1.778" layer="27" rot="R180" display="off"/>
<attribute name="PACKAGE" value="SMD" x="40.64" y="31.75" size="1.778" layer="27" rot="R180" display="off"/>
</element>
<element name="X2" library="con-berg" library_urn="urn:adsk.eagle:library:130" package="PN61729-S" package3d_urn="urn:adsk.eagle:package:6149/1" value="" x="5.08" y="41.91" rot="R270">
<attribute name="MF" value="" x="5.08" y="41.91" size="1.778" layer="27" rot="R270" display="off"/>
<attribute name="MPN" value="" x="5.08" y="41.91" size="1.778" layer="27" rot="R270" display="off"/>
<attribute name="OC_FARNELL" value="unknown" x="5.08" y="41.91" size="1.778" layer="27" rot="R270" display="off"/>
<attribute name="OC_NEWARK" value="unknown" x="5.08" y="41.91" size="1.778" layer="27" rot="R270" display="off"/>
</element>
<element name="S1" library="switch-misc" library_urn="urn:adsk.eagle:library:376" package="RACON12" package3d_urn="urn:adsk.eagle:package:27445/1" value="R" x="22.86" y="60.325"/>
<element name="S2" library="switch-misc" library_urn="urn:adsk.eagle:library:376" package="RACON12" package3d_urn="urn:adsk.eagle:package:27445/1" value="M" x="20.32" y="41.91" rot="R180"/>
<element name="S3" library="switch-misc" library_urn="urn:adsk.eagle:library:376" package="RACON12" package3d_urn="urn:adsk.eagle:package:27445/1" value="L" x="22.86" y="23.495" rot="R180"/>
<element name="X1" library="con-lsta" library_urn="urn:adsk.eagle:library:161" package="FE05-2" package3d_urn="urn:adsk.eagle:package:8170/1" value="ISP" x="42.545" y="55.88" rot="MR180">
<attribute name="MF" value="" x="42.545" y="55.88" size="1.778" layer="28" rot="MR180" display="off"/>
<attribute name="MPN" value="" x="42.545" y="55.88" size="1.778" layer="28" rot="MR180" display="off"/>
<attribute name="OC_FARNELL" value="unknown" x="42.545" y="55.88" size="1.778" layer="28" rot="MR180" display="off"/>
<attribute name="OC_NEWARK" value="unknown" x="42.545" y="55.88" size="1.778" layer="28" rot="MR180" display="off"/>
</element>
</elements>
<signals>
<signal name="GND">
<contactref element="X2" pad="4"/>
<contactref element="EN1" pad="B"/>
<contactref element="EN1" pad="2"/>
<contactref element="C7*" pad="2"/>
<contactref element="C6*" pad="2"/>
<contactref element="C8" pad="1"/>
<contactref element="X2" pad="S1"/>
<contactref element="X2" pad="S2"/>
<contactref element="C4" pad="1"/>
<contactref element="IC1" pad="10"/>
<contactref element="C5" pad="1"/>
<contactref element="S1" pad="2"/>
<contactref element="S2" pad="1"/>
<contactref element="S3" pad="1"/>
<contactref element="S3" pad="2"/>
<contactref element="X1" pad="10"/>
<contactref element="X1" pad="4"/>
<contactref element="X1" pad="6"/>
<contactref element="X1" pad="8"/>
<wire x1="31.6992" y1="39.4208" x2="33.02" y2="38.1" width="0.4064" layer="16"/>
<wire x1="33.02" y1="38.1" x2="33.02" y2="36.7792" width="0.4064" layer="16"/>
<wire x1="5.08" y1="47.93" x2="5.08" y2="40.64" width="0.6096" layer="16"/>
<wire x1="5.08" y1="40.64" x2="5.08" y2="35.89" width="0.6096" layer="16"/>
<wire x1="7.79" y1="40.66" x2="7.77" y2="40.64" width="0.508" layer="16"/>
<wire x1="7.77" y1="40.64" x2="5.08" y2="40.64" width="0.6096" layer="16"/>
<wire x1="38.1" y1="26.44" x2="43.18" y2="26.44" width="0.6096" layer="16"/>
<wire x1="63.62" y1="39.36" x2="78.07" y2="39.36" width="0.6096" layer="16"/>
<wire x1="78.07" y1="39.36" x2="78.12" y2="39.41" width="0.508" layer="16"/>
<wire x1="26.5684" y1="39.4208" x2="31.6992" y2="39.4208" width="0.4064" layer="16"/>
<wire x1="47.625" y1="57.15" x2="45.085" y2="57.15" width="0.6096" layer="16"/>
<wire x1="45.085" y1="57.15" x2="42.545" y2="57.15" width="0.6096" layer="16"/>
<wire x1="42.545" y1="57.15" x2="40.005" y2="57.15" width="0.6096" layer="16"/>
<wire x1="78.12" y1="39.41" x2="80.05" y2="39.41" width="0.6096" layer="16"/>
<wire x1="80.05" y1="39.41" x2="81.28" y2="40.64" width="0.6096" layer="16"/>
<wire x1="81.28" y1="40.64" x2="81.28" y2="55.245" width="0.6096" layer="16"/>
<wire x1="79.375" y1="57.15" x2="81.28" y2="55.245" width="0.6096" layer="16"/>
<wire x1="40.235" y1="58.42" x2="40.005" y2="58.19" width="0.6096" layer="16"/>
<wire x1="40.005" y1="58.19" x2="40.005" y2="57.15" width="0.6096" layer="16"/>
<wire x1="40.235" y1="60.96" x2="40.235" y2="58.42" width="0.6096" layer="16"/>
<wire x1="40.235" y1="60.96" x2="40.235" y2="62.635" width="0.4064" layer="16"/>
<wire x1="40.235" y1="62.635" x2="39.4208" y2="63.4492" width="0.4064" layer="16"/>
<wire x1="39.4208" y1="63.4492" x2="35.1409" y2="63.4492" width="0.4064" layer="16"/>
<wire x1="43.18" y1="26.44" x2="46.125" y2="26.44" width="0.6096" layer="16"/>
<wire x1="59.045" y1="39.36" x2="63.62" y2="39.36" width="0.6096" layer="16"/>
<wire x1="46.125" y1="26.44" x2="59.045" y2="39.36" width="0.6096" layer="16"/>
<wire x1="47.625" y1="57.15" x2="50.165" y2="57.15" width="0.6096" layer="16"/>
<via x="50.165" y="57.15" extent="1-16" drill="0.4" diameter="1.2"/>
<wire x1="50.165" y1="57.15" x2="57.785" y2="57.15" width="0.6096" layer="1"/>
<via x="57.785" y="57.15" extent="1-16" drill="0.4" diameter="1.2"/>
<wire x1="57.785" y1="57.15" x2="60.325" y2="57.15" width="0.6096" layer="16"/>
<wire x1="60.325" y1="57.15" x2="79.375" y2="57.15" width="0.6096" layer="16"/>
<wire x1="60.325" y1="55.475" x2="60.325" y2="57.15" width="0.4064" layer="16"/>
<wire x1="54.61" y1="55.475" x2="56.11" y2="55.475" width="0.4064" layer="16"/>
<wire x1="56.11" y1="55.475" x2="57.785" y2="57.15" width="0.4064" layer="16"/>
<wire x1="5.08" y1="35.89" x2="5.08" y2="30.48" width="0.6096" layer="16"/>
<wire x1="5.08" y1="30.48" x2="14.605" y2="20.955" width="0.6096" layer="16"/>
<wire x1="14.605" y1="20.955" x2="14.6558" y2="21.0058" width="0.6096" layer="16"/>
<wire x1="14.6558" y1="21.0058" x2="16.6116" y2="21.0058" width="0.6096" layer="16"/>
<wire x1="16.6116" y1="21.0058" x2="29.1084" y2="21.0058" width="0.6096" layer="16"/>
<wire x1="29.1084" y1="21.0058" x2="31.8008" y2="21.0058" width="0.6096" layer="16"/>
<wire x1="38.1" y1="26.44" x2="34.925" y2="26.44" width="0.6096" layer="16"/>
<wire x1="33.02" y1="36.7792" x2="33.02" y2="36.195" width="0.6096" layer="16"/>
<wire x1="33.02" y1="36.195" x2="34.925" y2="34.29" width="0.6096" layer="16"/>
<wire x1="34.925" y1="34.29" x2="34.925" y2="26.44" width="0.6096" layer="16"/>
<wire x1="34.29" y1="23.495" x2="34.29" y2="26.44" width="0.6096" layer="16"/>
<wire x1="31.8008" y1="21.0058" x2="34.29" y2="23.495" width="0.6096" layer="16"/>
<wire x1="35.1409" y1="63.4492" x2="34.5059" y2="62.8142" width="0.4064" layer="16"/>
<wire x1="34.5059" y1="62.8142" x2="29.1084" y2="62.8142" width="0.4064" layer="16"/>
<polygon width="0.2" layer="16" pour="hatch" isolate="1.27">
<vertex x="0.635" y="70.1675"/>
<vertex x="0.635" y="14.605"/>
<vertex x="84.1375" y="14.605"/>
<vertex x="84.455" y="14.9225"/>
<vertex x="84.455" y="68.2625" curve="1"/>
<vertex x="2.54" y="68.2625"/>
</polygon>
<wire x1="34.925" y1="26.44" x2="34.29" y2="26.44" width="0.6096" layer="16"/>
</signal>
<signal name="VCC">
<contactref element="IC1" pad="20"/>
<contactref element="R1" pad="1"/>
<contactref element="C8" pad="2"/>
<contactref element="R6" pad="1"/>
<contactref element="D2" pad="C"/>
<contactref element="X1" pad="2"/>
<wire x1="30.1625" y1="61.2775" x2="24.765" y2="61.2775" width="0.6096" layer="16"/>
<wire x1="24.765" y1="60.96" x2="24.765" y2="50.8" width="0.6096" layer="16"/>
<via x="24.765" y="50.8" extent="1-16" drill="0.4" diameter="1.2"/>
<wire x1="24.765" y1="50.8" x2="20.955" y2="50.8" width="0.508" layer="1"/>
<via x="20.955" y="50.8" extent="1-16" drill="0.4" diameter="1.2"/>
<wire x1="20.955" y1="50.8" x2="12.929" y2="50.8" width="0.508" layer="16"/>
<wire x1="30.48" y1="49.53" x2="29.21" y2="50.8" width="0.6096" layer="16"/>
<wire x1="29.21" y1="50.8" x2="24.765" y2="50.8" width="0.6096" layer="16"/>
<wire x1="30.48" y1="47.625" x2="30.48" y2="49.53" width="0.6096" layer="16"/>
<wire x1="44.45" y1="46.3042" x2="44.45" y2="47.625" width="0.6096" layer="16"/>
<wire x1="44.45" y1="47.625" x2="52.07" y2="55.245" width="0.6096" layer="16"/>
<wire x1="52.07" y1="59.055" x2="45.72" y2="65.405" width="0.6096" layer="16"/>
<wire x1="45.72" y1="65.405" x2="26.67" y2="65.405" width="0.6096" layer="16"/>
<wire x1="26.67" y1="65.405" x2="24.765" y2="63.5" width="0.6096" layer="16"/>
<wire x1="24.765" y1="63.5" x2="24.765" y2="61.595" width="0.6096" layer="16"/>
<wire x1="52.07" y1="55.245" x2="52.07" y2="59.055" width="0.6096" layer="16"/>
<wire x1="46.99" y1="42.774" x2="45.491" y2="42.774" width="0.6096" layer="16"/>
<wire x1="44.45" y1="43.815" x2="44.45" y2="46.3042" width="0.6096" layer="16"/>
<wire x1="45.491" y1="42.774" x2="44.45" y2="43.815" width="0.6096" layer="16"/>
<wire x1="37.465" y1="58.42" x2="37.235" y2="58.65" width="0.6096" layer="16"/>
<wire x1="37.235" y1="58.65" x2="37.235" y2="60.96" width="0.6096" layer="16"/>
<wire x1="34.3775" y1="61.2775" x2="30.1625" y2="61.2775" width="0.6096" layer="16"/>
<wire x1="37.465" y1="57.15" x2="37.465" y2="58.42" width="0.6096" layer="16"/>
<wire x1="24.765" y1="61.595" x2="24.765" y2="61.2775" width="0.6096" layer="16"/>
<wire x1="37.235" y1="60.96" x2="34.695" y2="60.96" width="0.6096" layer="16"/>
<wire x1="34.695" y1="60.96" x2="34.3775" y2="61.2775" width="0.6096" layer="16"/>
<wire x1="24.765" y1="61.2775" x2="24.765" y2="60.96" width="0.6096" layer="16"/>
</signal>
<signal name="N$1">
<contactref element="C5" pad="2"/>
<contactref element="Q1" pad="2"/>
<contactref element="IC1" pad="5"/>
<wire x1="39.37" y1="32.92" x2="38.2" y2="31.75" width="0.508" layer="16"/>
<wire x1="39.37" y1="36.7792" x2="39.37" y2="32.92" width="0.508" layer="16"/>
<wire x1="38.2" y1="31.75" x2="38.2" y2="29.54" width="0.508" layer="16"/>
<wire x1="38.2" y1="29.54" x2="38.1" y2="29.44" width="0.508" layer="16"/>
</signal>
<signal name="N$2">
<contactref element="IC1" pad="4"/>
<contactref element="Q1" pad="1"/>
<contactref element="C4" pad="2"/>
<wire x1="40.64" y1="36.7792" x2="40.64" y2="34.19" width="0.508" layer="16"/>
<wire x1="40.64" y1="34.19" x2="43.08" y2="31.75" width="0.508" layer="16"/>
<wire x1="43.08" y1="31.75" x2="43.08" y2="29.54" width="0.508" layer="16"/>
<wire x1="43.08" y1="29.54" x2="43.18" y2="29.44" width="0.508" layer="16"/>
</signal>
<signal name="N$3">
<contactref element="IC1" pad="1"/>
<contactref element="R1" pad="2"/>
<contactref element="X1" pad="5"/>
<wire x1="44.45" y1="36.7792" x2="44.45" y2="40.005" width="0.4064" layer="16"/>
<wire x1="41.5925" y1="42.8625" x2="44.45" y2="40.005" width="0.4064" layer="16"/>
<wire x1="41.5925" y1="42.8625" x2="24.4475" y2="42.8625" width="0.4064" layer="16"/>
<wire x1="24.4475" y1="42.8625" x2="24.13" y2="43.18" width="0.4064" layer="16"/>
<wire x1="46.99" y1="39.776" x2="46.761" y2="40.005" width="0.4064" layer="16"/>
<wire x1="46.761" y1="40.005" x2="44.45" y2="40.005" width="0.4064" layer="16"/>
<wire x1="42.545" y1="54.61" x2="41.275" y2="55.88" width="0.4064" layer="16"/>
<wire x1="36.83" y1="55.88" x2="41.275" y2="55.88" width="0.4064" layer="16"/>
<wire x1="24.13" y1="45.72" x2="24.765" y2="46.355" width="0.4064" layer="16"/>
<wire x1="24.765" y1="46.355" x2="28.575" y2="46.355" width="0.4064" layer="16"/>
<wire x1="28.575" y1="46.355" x2="29.21" y2="45.72" width="0.4064" layer="16"/>
<wire x1="24.13" y1="43.18" x2="24.13" y2="45.72" width="0.4064" layer="16"/>
<wire x1="29.21" y1="45.72" x2="31.75" y2="45.72" width="0.4064" layer="16"/>
<wire x1="31.75" y1="45.72" x2="31.75" y2="50.165" width="0.4064" layer="16"/>
<wire x1="31.75" y1="50.165" x2="25.7175" y2="56.1975" width="0.4064" layer="16"/>
<wire x1="25.7175" y1="56.1975" x2="25.7175" y2="58.7375" width="0.4064" layer="16"/>
<wire x1="25.7175" y1="58.7375" x2="27.2796" y2="60.2996" width="0.4064" layer="16"/>
<wire x1="27.2796" y1="60.2996" x2="32.4104" y2="60.2996" width="0.4064" layer="16"/>
<wire x1="32.4104" y1="60.2996" x2="36.83" y2="55.88" width="0.4064" layer="16"/>
</signal>
<signal name="N$4">
<contactref element="EN1" pad="A"/>
<contactref element="R2*" pad="2"/>
<wire x1="53.975" y1="45.491" x2="53.975" y2="44.45" width="0.4064" layer="16"/>
<wire x1="53.975" y1="44.45" x2="63.58" y2="44.45" width="0.4064" layer="16"/>
<wire x1="63.58" y1="44.45" x2="63.62" y2="44.41" width="0.4064" layer="16"/>
<wire x1="54.61" y1="46.126" x2="53.975" y2="45.491" width="0.4064" layer="16"/>
</signal>
<signal name="N$5">
<contactref element="EN1" pad="C"/>
<contactref element="R3*" pad="2"/>
<wire x1="63.62" y1="41.91" x2="65.405" y2="43.695" width="0.4064" layer="16"/>
<wire x1="65.405" y1="43.695" x2="65.405" y2="45.085" width="0.4064" layer="16"/>
<wire x1="65.405" y1="45.085" x2="64.135" y2="46.355" width="0.4064" layer="16"/>
<wire x1="64.135" y1="46.355" x2="60.554" y2="46.355" width="0.4064" layer="16"/>
<wire x1="60.554" y1="46.355" x2="60.325" y2="46.126" width="0.4064" layer="16"/>
</signal>
<signal name="N$6">
<contactref element="R3*" pad="1"/>
<contactref element="C7*" pad="1"/>
<contactref element="IC1" pad="12"/>
<wire x1="34.29" y1="46.3042" x2="34.29" y2="50.8" width="0.4064" layer="16"/>
<via x="34.29" y="50.8" extent="1-16" drill="0.4" diameter="1.2" shape="octagon"/>
<wire x1="34.29" y1="50.8" x2="57.785" y2="50.8" width="0.4064" layer="1"/>
<via x="57.785" y="50.8" extent="1-16" drill="0.4" diameter="1.2"/>
<wire x1="60.325" y1="49.124" x2="60.325" y2="50.8" width="0.4064" layer="16"/>
<wire x1="60.325" y1="50.8" x2="60.325" y2="52.475" width="0.4064" layer="16"/>
<wire x1="59.69" y1="50.8" x2="60.325" y2="50.8" width="0.4064" layer="16"/>
<wire x1="57.785" y1="50.8" x2="59.69" y2="50.8" width="0.4064" layer="16"/>
</signal>
<signal name="N$7">
<contactref element="R2*" pad="1"/>
<contactref element="C6*" pad="1"/>
<contactref element="IC1" pad="13"/>
<wire x1="35.56" y1="46.3042" x2="35.56" y2="49.53" width="0.4064" layer="16"/>
<via x="35.56" y="49.53" extent="1-16" drill="0.4" diameter="1.2"/>
<wire x1="35.56" y1="49.53" x2="48.26" y2="49.53" width="0.4064" layer="1"/>
<via x="48.26" y="49.53" extent="1-16" drill="0.4" diameter="1.2"/>
<wire x1="50.165" y1="49.53" x2="48.26" y2="49.53" width="0.4064" layer="16"/>
<wire x1="54.61" y1="52.475" x2="54.61" y2="49.124" width="0.4064" layer="16"/>
<wire x1="54.61" y1="49.124" x2="50.571" y2="49.124" width="0.4064" layer="16"/>
<wire x1="50.571" y1="49.124" x2="50.165" y2="49.53" width="0.4064" layer="16"/>
</signal>
<signal name="N$8">
<contactref element="IC1" pad="8"/>
<contactref element="R4" pad="1"/>
<wire x1="35.56" y1="36.7792" x2="35.56" y2="40.005" width="0.4064" layer="16"/>
<wire x1="35.56" y1="40.005" x2="34.6075" y2="40.9575" width="0.4064" layer="16"/>
<wire x1="23.1775" y1="40.9575" x2="21.59" y2="42.545" width="0.4064" layer="16"/>
<wire x1="34.6075" y1="40.9575" x2="23.1775" y2="40.9575" width="0.4064" layer="16"/>
<wire x1="21.59" y1="42.545" x2="21.59" y2="47.625" width="0.508" layer="16"/>
<wire x1="21.59" y1="47.625" x2="12.929" y2="47.625" width="0.508" layer="16"/>
</signal>
<signal name="N$9">
<contactref element="IC1" pad="6"/>
<contactref element="R5" pad="1"/>
<wire x1="12.929" y1="53.975" x2="20.955" y2="53.975" width="0.508" layer="16"/>
<wire x1="22.86" y1="52.07" x2="20.955" y2="53.975" width="0.508" layer="16"/>
<wire x1="38.1" y1="36.7792" x2="38.1" y2="40.005" width="0.4064" layer="16"/>
<wire x1="36.195" y1="41.91" x2="24.13" y2="41.91" width="0.4064" layer="16"/>
<wire x1="38.1" y1="40.005" x2="36.195" y2="41.91" width="0.4064" layer="16"/>
<wire x1="24.13" y1="41.91" x2="22.86" y2="43.18" width="0.4064" layer="16"/>
<wire x1="22.86" y1="43.18" x2="22.86" y2="52.07" width="0.508" layer="16"/>
</signal>
<signal name="N$10">
<contactref element="R5" pad="2"/>
<contactref element="X2" pad="3"/>
<wire x1="9.931" y1="53.975" x2="9.525" y2="53.975" width="0.508" layer="16"/>
<wire x1="9.525" y1="53.975" x2="7.79" y2="52.24" width="0.508" layer="16"/>
<wire x1="7.79" y1="52.24" x2="7.79" y2="43.16" width="0.508" layer="16"/>
</signal>
<signal name="N$11">
<contactref element="R4" pad="2"/>
<contactref element="X2" pad="2"/>
<contactref element="R6" pad="2"/>
<wire x1="9.931" y1="43.301" x2="9.79" y2="43.16" width="0.508" layer="16"/>
<wire x1="9.931" y1="47.625" x2="9.931" y2="43.301" width="0.508" layer="16"/>
<wire x1="9.931" y1="50.8" x2="9.931" y2="47.625" width="0.4064" layer="16"/>
</signal>
<signal name="N$12">
<contactref element="EN1" pad="1"/>
<contactref element="IC1" pad="14"/>
<wire x1="36.83" y1="46.3042" x2="36.83" y2="48.26" width="0.4064" layer="16"/>
<via x="36.83" y="48.26" extent="1-16" drill="0.4" diameter="1.2"/>
<wire x1="36.83" y1="48.26" x2="46.99" y2="48.26" width="0.4064" layer="1"/>
<via x="46.99" y="48.26" extent="1-16" drill="0.4" diameter="1.2"/>
<wire x1="78.12" y1="44.41" x2="74.35" y2="40.64" width="0.4064" layer="16"/>
<wire x1="74.35" y1="40.64" x2="52.705" y2="40.64" width="0.4064" layer="16"/>
<wire x1="52.705" y1="40.64" x2="46.99" y2="46.355" width="0.4064" layer="16"/>
<wire x1="46.99" y1="46.355" x2="46.99" y2="48.26" width="0.4064" layer="16"/>
</signal>
<signal name="N$13">
<contactref element="X2" pad="1"/>
<contactref element="D1" pad="A"/>
<wire x1="9.79" y1="40.66" x2="9.79" y2="35.295" width="0.6096" layer="16"/>
<wire x1="9.79" y1="35.295" x2="12.7" y2="32.385" width="0.6096" layer="16"/>
<wire x1="12.7" y1="32.385" x2="14.605" y2="32.385" width="0.6096" layer="16"/>
</signal>
<signal name="N$14">
<contactref element="D1" pad="C"/>
<contactref element="D2" pad="A"/>
<wire x1="27.813" y1="32.385" x2="24.765" y2="32.385" width="0.6096" layer="16"/>
<wire x1="30.48" y1="37.465" x2="30.48" y2="35.052" width="0.6096" layer="16"/>
<wire x1="30.48" y1="35.052" x2="27.813" y2="32.385" width="0.6096" layer="16"/>
</signal>
<signal name="N$15">
<contactref element="IC1" pad="17"/>
<contactref element="X1" pad="1"/>
<wire x1="40.64" y1="46.3042" x2="40.64" y2="48.895" width="0.4064" layer="16"/>
<wire x1="40.64" y1="48.895" x2="37.465" y2="52.07" width="0.4064" layer="16"/>
<wire x1="37.465" y1="52.07" x2="37.465" y2="54.61" width="0.4064" layer="16"/>
<wire x1="37.465" y1="54.61" x2="36.83" y2="54.61" width="0.4064" layer="16"/>
<wire x1="36.83" y1="54.61" x2="32.0675" y2="59.3725" width="0.4064" layer="16"/>
<wire x1="32.0675" y1="59.3725" x2="27.6225" y2="59.3725" width="0.4064" layer="16"/>
<wire x1="27.6225" y1="59.3725" x2="26.67" y2="58.42" width="0.4064" layer="16"/>
<wire x1="26.67" y1="58.42" x2="26.67" y2="56.515" width="0.4064" layer="16"/>
<wire x1="33.02" y1="50.165" x2="33.02" y2="49.53" width="0.4064" layer="16"/>
<wire x1="26.67" y1="56.515" x2="33.02" y2="50.165" width="0.4064" layer="16"/>
<via x="33.02" y="49.53" extent="1-16" drill="0.4" diameter="1.2"/>
<wire x1="33.02" y1="49.53" x2="33.02" y2="33.02" width="0.4064" layer="1"/>
<via x="33.02" y="33.02" extent="1-16" drill="0.4" diameter="1.2"/>
<wire x1="33.02" y1="33.02" x2="29.1084" y2="29.1084" width="0.4064" layer="16"/>
<contactref element="S3" pad="3"/>
<wire x1="29.1084" y1="29.1084" x2="29.1084" y2="25.9842" width="0.4064" layer="16"/>
</signal>
<signal name="N$16">
<contactref element="IC1" pad="16"/>
<wire x1="39.37" y1="45.0342" x2="38.735" y2="44.3992" width="0.4064" layer="16"/>
<wire x1="38.735" y1="44.3992" x2="29.1084" y2="44.3992" width="0.4064" layer="16"/>
<wire x1="39.37" y1="46.3042" x2="39.37" y2="45.0342" width="0.4064" layer="16"/>
<contactref element="S2" pad="3"/>
<wire x1="26.5684" y1="44.3992" x2="29.1084" y2="44.3992" width="0.4064" layer="16"/>
</signal>
<signal name="N$17">
<contactref element="IC1" pad="15"/>
<contactref element="S1" pad="4"/>
<wire x1="29.6926" y1="58.42" x2="29.1084" y2="57.8358" width="0.508" layer="16"/>
<wire x1="29.6926" y1="58.42" x2="31.75" y2="58.42" width="0.508" layer="16"/>
<wire x1="31.75" y1="58.42" x2="35.56" y2="54.61" width="0.508" layer="16"/>
<wire x1="35.56" y1="54.61" x2="35.56" y2="52.07" width="0.508" layer="16"/>
<wire x1="35.56" y1="52.07" x2="38.1" y2="49.53" width="0.508" layer="16"/>
<wire x1="38.1" y1="49.53" x2="38.1" y2="46.3042" width="0.508" layer="16"/>
</signal>
<signal name="N$21">
<contactref element="IC1" pad="19"/>
<contactref element="X1" pad="7"/>
<wire x1="45.085" y1="54.61" x2="46.355" y2="55.88" width="0.4064" layer="16"/>
<wire x1="46.355" y1="55.88" x2="48.26" y2="55.88" width="0.4064" layer="16"/>
<wire x1="48.895" y1="55.245" x2="48.26" y2="55.88" width="0.4064" layer="16"/>
<wire x1="43.18" y1="46.3042" x2="43.18" y2="48.26" width="0.4064" layer="16"/>
<wire x1="43.18" y1="48.26" x2="48.895" y2="53.975" width="0.4064" layer="16"/>
<wire x1="48.895" y1="53.975" x2="48.895" y2="55.245" width="0.4064" layer="16"/>
</signal>
<signal name="N$19">
<contactref element="IC1" pad="18"/>
<contactref element="X1" pad="9"/>
<wire x1="41.91" y1="46.3042" x2="41.91" y2="48.895" width="0.4064" layer="16"/>
<wire x1="41.91" y1="48.895" x2="45.72" y2="52.705" width="0.4064" layer="16"/>
<wire x1="45.72" y1="52.705" x2="47.625" y2="54.61" width="0.4064" layer="16"/>
</signal>
</signals>
<mfgpreviewcolors>
<mfgpreviewcolor name="soldermaskcolor" color="0xC8008000"/>
<mfgpreviewcolor name="silkscreencolor" color="0xFFFEFEFE"/>
<mfgpreviewcolor name="backgroundcolor" color="0xFF282828"/>
<mfgpreviewcolor name="coppercolor" color="0xFFFFBF00"/>
<mfgpreviewcolor name="substratecolor" color="0xFF786E46"/>
</mfgpreviewcolors>
</board>
</drawing>
<compatibility>
<note version="8.2" severity="warning">
Since Version 8.2, EAGLE supports online libraries. The ids
of those online libraries will not be understood (or retained)
with this version.
</note>
<note version="8.3" severity="warning">
Since Version 8.3, EAGLE supports URNs for individual library
assets (packages, symbols, and devices). The URNs of those assets
will not be understood (or retained) with this version.
</note>
<note version="8.3" severity="warning">
Since Version 8.3, EAGLE supports the association of 3D packages
with devices in libraries, schematics, and board files. Those 3D
packages will not be understood (or retained) with this version.
</note>
</compatibility>
</eagle>
